[
    {
        "object": "FreeCubesSet",
        "representative": {
            "object": "FixedCubesSet",
            "representative": {
                "cubes": "[(0, 1, 1), (0, 1, 3), (0, 2, 2), (1, 0, 1), (1, 0, 3), (1, 1, 0), (1, 1, 1), (1, 1, 2), (1, 1, 3), (1, 1, 4), (1, 2, 2), (1, 3, 2), (2, 1, 1), (2, 1, 3), (2, 2, 2)]",
                "degrees": "[3, 4, 5, 5]",
                "direction": "(0, 1, 0)",
                "object": "CubesSet",
                "root": "(1, 2, 2)"
            }
        }
    }
]