[
    {
        "object": "FreeCubesSet",
        "replaced-by": {
            "object": "FreeCubesSet",
            "representative": {
                "object": "FixedCubesSet",
                "representative": {
                    "cubes": "[(0, 1, 1), (1, 0, 1), (1, 1, 0), (1, 1, 1), (1, 1, 2), (1, 2, 1), (2, 1, 1)]",
                    "degrees": "[6]",
                    "direction": "(-1, 0, 0)",
                    "object": "CubesSet",
                    "root": "(1, 1, 1)"
                }
            }
        },
        "representative": {
            "object": "FixedCubesSet",
            "representative": {
                "cubes": "[(0, 1, 2), (0, 3, 2), (1, 0, 2), (1, 1, 1), (1, 1, 2), (1, 1, 3), (1, 2, 2), (1, 3, 1), (1, 3, 2), (1, 3, 3), (1, 4, 2), (2, 2, 1), (2, 2, 2), (2, 2, 3), (3, 1, 2), (3, 2, 2), (3, 3, 2), (4, 1, 1), (4, 1, 3), (4, 2, 0), (4, 2, 1), (4, 2, 2), (4, 2, 3), (4, 2, 4), (4, 3, 1), (4, 3, 3), (5, 2, 1), (5, 2, 3)]",
                "degrees": "[3, 3, 4, 4, 5, 5, 5, 5]",
                "direction": "(0, 0, -1)",
                "object": "CubesSet",
                "root": "(2, 2, 2)"
            }
        }
    },
    {
        "object": "FreeCubesSet",
        "replaced-by": {
            "object": "FreeCubesSet",
            "representative": {
                "object": "FixedCubesSet",
                "representative": {
                    "cubes": "[(0, 1, 1), (0, 1, 3), (1, 0, 1), (1, 0, 3), (1, 1, 0), (1, 1, 1), (1, 1, 2), (1, 1, 3), (1, 1, 4), (1, 2, 1), (1, 2, 3), (2, 1, 2)]",
                    "degrees": "[3, 5, 5]",
                    "direction": "(1, 0, 0)",
                    "object": "CubesSet",
                    "root": "(1, 1, 2)"
                }
            }
        },
        "representative": {
            "object": "FixedCubesSet",
            "representative": {
                "cubes": "[(0, 1, 1), (0, 1, 3), (0, 2, 2), (0, 4, 2), (1, 0, 1), (1, 0, 3), (1, 1, 0), (1, 1, 1), (1, 1, 2), (1, 1, 3), (1, 1, 4), (1, 2, 2), (1, 3, 1), (1, 3, 2), (1, 4, 2), (1, 4, 3), (1, 5, 2), (2, 1, 1), (2, 1, 3), (2, 2, 2), (2, 4, 2)]",
                "degrees": "[3, 3, 4, 5, 5, 5]",
                "direction": "(0, 0, -1)",
                "object": "CubesSet",
                "root": "(1, 3, 2)"
            }
        }
    }
]