[
    {
        "object": "FreeCubesSet",
        "replaced-by": {
            "object": "FreeCubesSet",
            "representative": {
                "object": "FixedCubesSet",
                "representative": {
                    "cubes": "[(0, 0, 1), (0, 1, 0), (0, 1, 1), (0, 1, 2), (0, 2, 1), (1, 1, 1)]",
                    "degrees": "[5]",
                    "direction": "(0, -1, 0)",
                    "object": "CubesSet",
                    "root": "(0, 1, 1)"
                }
            }
        },
        "representative": {
            "object": "FixedCubesSet",
            "representative": {
                "cubes": "[(0, 1, 4), (0, 3, 4), (1, 0, 4), (1, 1, 3), (1, 1, 4), (1, 1, 5), (1, 2, 4), (1, 3, 3), (1, 3, 4), (1, 3, 5), (1, 4, 4), (2, 2, 3), (2, 2, 4), (2, 2, 5), (2, 2, 10), (3, 1, 1), (3, 1, 4), (3, 1, 10), (3, 2, 2), (3, 2, 4), (3, 2, 6), (3, 2, 8), (3, 2, 10), (3, 2, 11), (3, 3, 1), (3, 3, 4), (3, 3, 10), (4, 0, 1), (4, 1, 0), (4, 1, 1), (4, 1, 3), (4, 1, 5), (4, 1, 7), (4, 1, 9), (4, 2, 1), (4, 2, 2), (4, 2, 3), (4, 2, 4), (4, 2, 5), (4, 2, 6), (4, 2, 7), (4, 2, 8), (4, 2, 9), (4, 2, 10), (4, 3, 0), (4, 3, 1), (4, 3, 3), (4, 3, 5), (4, 3, 7), (4, 3, 9), (4, 4, 1), (5, 1, 1), (5, 1, 6), (5, 1, 10), (5, 2, 2), (5, 2, 4), (5, 2, 6), (5, 2, 8), (5, 2, 10), (5, 2, 11), (5, 3, 1), (5, 3, 6), (5, 3, 10), (6, 2, 5), (6, 2, 6), (6, 2, 7), (6, 2, 10), (7, 0, 6), (7, 1, 5), (7, 1, 6), (7, 1, 7), (7, 2, 6), (7, 3, 5), (7, 3, 6), (7, 3, 7), (7, 4, 6), (8, 1, 6), (8, 3, 6)]",
                "degrees": "[3, 3, 3, 3, 4, 4, 4, 4, 4, 4, 4, 4, 4, 4, 4, 4, 5, 5, 5, 5, 5, 5, 5, 5]",
                "direction": "(0, -1, 0)",
                "object": "CubesSet",
                "root": "(4, 2, 7)"
            }
        }
    },
    {
        "object": "FreeCubesSet",
        "replaced-by": {
            "object": "FreeCubesSet",
            "representative": {
                "object": "FixedCubesSet",
                "representative": {
                    "cubes": "[(0, 0, 1), (0, 1, 0), (0, 1, 1), (0, 1, 2), (0, 2, 1), (1, 1, 1)]",
                    "degrees": "[5]",
                    "direction": "(1, 0, 0)",
                    "object": "CubesSet",
                    "root": "(0, 1, 1)"
                }
            }
        },
        "representative": {
            "object": "FixedCubesSet",
            "representative": {
                "cubes": "[(0, 1, 4), (0, 3, 4), (1, 0, 4), (1, 1, 3), (1, 1, 4), (1, 1, 5), (1, 2, 4), (1, 3, 3), (1, 3, 4), (1, 3, 5), (1, 4, 4), (2, 2, 3), (2, 2, 4), (2, 2, 5), (2, 2, 10), (3, 1, 1), (3, 1, 4), (3, 1, 10), (3, 2, 2), (3, 2, 4), (3, 2, 6), (3, 2, 8), (3, 2, 10), (3, 2, 11), (3, 3, 1), (3, 3, 4), (3, 3, 10), (4, 0, 1), (4, 1, 0), (4, 1, 1), (4, 1, 3), (4, 1, 5), (4, 1, 7), (4, 1, 9), (4, 2, 1), (4, 2, 2), (4, 2, 3), (4, 2, 4), (4, 2, 5), (4, 2, 6), (4, 2, 7), (4, 2, 8), (4, 2, 9), (4, 2, 10), (4, 3, 0), (4, 3, 1), (4, 3, 3), (4, 3, 5), (4, 3, 7), (4, 3, 9), (4, 4, 1), (5, 1, 1), (5, 1, 6), (5, 1, 10), (5, 2, 2), (5, 2, 4), (5, 2, 6), (5, 2, 8), (5, 2, 10), (5, 2, 11), (5, 3, 1), (5, 3, 6), (5, 3, 10), (6, 2, 5), (6, 2, 6), (6, 2, 7), (6, 2, 10), (6, 4, 6), (6, 5, 5), (6, 5, 7), (7, 1, 6), (7, 2, 6), (7, 3, 5), (7, 3, 6), (7, 3, 7), (7, 4, 6), (7, 5, 4), (7, 5, 5), (7, 5, 6), (7, 5, 7), (7, 5, 8), (7, 6, 5), (7, 6, 7), (8, 2, 5), (8, 2, 6), (8, 2, 7), (8, 4, 6), (8, 5, 5), (8, 5, 7), (9, 1, 6), (9, 2, 6), (9, 3, 6), (10, 1, 5), (10, 1, 7), (10, 2, 4), (10, 2, 5), (10, 2, 6), (10, 2, 7), (10, 2, 8), (10, 3, 5), (10, 3, 7), (11, 2, 5), (11, 2, 7)]",
                "degrees": "[3, 3, 3, 3, 3, 4, 4, 4, 4, 4, 4, 4, 4, 4, 4, 4, 4, 4, 4, 4, 4, 4, 5, 5, 5, 5, 5, 5, 5, 5, 5, 5]",
                "direction": "(0, -1, 0)",
                "object": "CubesSet",
                "root": "(5, 2, 6)"
            }
        }
    },
    {
        "object": "FreeCubesSet",
        "replaced-by": {
            "object": "FreeCubesSet",
            "representative": {
                "object": "FixedCubesSet",
                "representative": {
                    "cubes": "[(0, 0, 1), (0, 1, 0), (0, 1, 1), (0, 1, 2), (0, 2, 1), (1, 1, 1)]",
                    "degrees": "[5]",
                    "direction": "(0, -1, 0)",
                    "object": "CubesSet",
                    "root": "(0, 1, 1)"
                }
            }
        },
        "representative": {
            "object": "FixedCubesSet",
            "representative": {
                "cubes": "[(0, 1, 4), (0, 3, 4), (1, 0, 4), (1, 1, 3), (1, 1, 4), (1, 1, 5), (1, 2, 4), (1, 3, 3), (1, 3, 4), (1, 3, 5), (1, 4, 4), (2, 2, 3), (2, 2, 4), (2, 2, 5), (3, 1, 1), (3, 1, 4), (3, 1, 9), (3, 2, 2), (3, 2, 4), (3, 2, 6), (3, 2, 8), (3, 3, 1), (3, 3, 4), (3, 3, 9), (4, 0, 1), (4, 0, 9), (4, 1, 0), (4, 1, 1), (4, 1, 3), (4, 1, 5), (4, 1, 7), (4, 1, 9), (4, 1, 10), (4, 2, 1), (4, 2, 2), (4, 2, 3), (4, 2, 4), (4, 2, 5), (4, 2, 6), (4, 2, 7), (4, 2, 8), (4, 2, 9), (4, 3, 0), (4, 3, 1), (4, 3, 3), (4, 3, 5), (4, 3, 7), (4, 3, 9), (4, 3, 10), (4, 4, 1), (4, 4, 9), (5, 1, 1), (5, 1, 6), (5, 1, 9), (5, 2, 2), (5, 2, 4), (5, 2, 6), (5, 2, 8), (5, 3, 1), (5, 3, 6), (5, 3, 9), (6, 2, 5), (6, 2, 6), (6, 2, 7), (7, 0, 6), (7, 1, 5), (7, 1, 6), (7, 1, 7), (7, 2, 6), (7, 3, 5), (7, 3, 6), (7, 3, 7), (7, 4, 6), (8, 1, 6), (8, 3, 6)]",
                "degrees": "[3, 3, 3, 3, 4, 4, 4, 4, 4, 4, 4, 4, 4, 4, 4, 5, 5, 5, 5, 5, 5, 5, 5]",
                "direction": "(0, -1, 0)",
                "object": "CubesSet",
                "root": "(4, 2, 3)"
            }
        }
    },
    {
        "object": "FreeCubesSet",
        "replaced-by": {
            "object": "FreeCubesSet",
            "representative": {
                "object": "FixedCubesSet",
                "representative": {
                    "cubes": "[(0, 0, 1), (0, 1, 0), (0, 1, 1), (0, 1, 2), (0, 2, 1), (1, 1, 1)]",
                    "degrees": "[5]",
                    "direction": "(1, 0, 0)",
                    "object": "CubesSet",
                    "root": "(0, 1, 1)"
                }
            }
        },
        "representative": {
            "object": "FixedCubesSet",
            "representative": {
                "cubes": "[(0, 1, 5), (0, 3, 5), (1, 0, 5), (1, 1, 4), (1, 1, 5), (1, 1, 6), (1, 2, 5), (1, 3, 4), (1, 3, 5), (1, 3, 6), (1, 4, 5), (2, 2, 1), (2, 2, 4), (2, 2, 5), (2, 2, 6), (3, 1, 1), (3, 1, 5), (3, 2, 0), (3, 2, 1), (3, 2, 3), (3, 2, 5), (3, 3, 1), (3, 3, 5), (4, 1, 2), (4, 1, 4), (4, 2, 1), (4, 2, 2), (4, 2, 3), (4, 2, 4), (4, 2, 5), (4, 2, 6), (4, 2, 9), (4, 3, 2), (4, 3, 4), (5, 1, 1), (5, 1, 5), (5, 1, 9), (5, 2, 0), (5, 2, 1), (5, 2, 3), (5, 2, 5), (5, 2, 7), (5, 2, 9), (5, 2, 10), (5, 3, 1), (5, 3, 5), (5, 3, 9), (6, 1, 6), (6, 1, 8), (6, 2, 1), (6, 2, 4), (6, 2, 5), (6, 2, 6), (6, 2, 7), (6, 2, 8), (6, 2, 9), (6, 3, 6), (6, 3, 8), (7, 1, 2), (7, 1, 5), (7, 1, 9), (7, 2, 3), (7, 2, 5), (7, 2, 7), (7, 2, 9), (7, 2, 10), (7, 3, 2), (7, 3, 5), (7, 3, 9), (8, 0, 2), (8, 1, 1), (8, 1, 2), (8, 1, 4), (8, 2, 2), (8, 2, 3), (8, 2, 4), (8, 2, 5), (8, 2, 6), (8, 2, 9), (8, 3, 1), (8, 3, 2), (8, 3, 4), (8, 4, 2), (9, 1, 2), (9, 1, 5), (9, 2, 3), (9, 2, 5), (9, 3, 2), (9, 3, 5), (10, 2, 4), (10, 2, 5), (10, 2, 6), (11, 0, 5), (11, 1, 4), (11, 1, 5), (11, 1, 6), (11, 2, 5), (11, 3, 4), (11, 3, 5), (11, 3, 6), (11, 4, 5), (12, 1, 5), (12, 3, 5)]",
                "degrees": "[3, 3, 3, 3, 3, 4, 4, 4, 4, 4, 4, 4, 4, 4, 4, 4, 4, 4, 4, 4, 4, 4, 5, 5, 5, 5, 5, 5, 5, 5, 5, 5]",
                "direction": "(0, -1, 0)",
                "object": "CubesSet",
                "root": "(5, 2, 5)"
            }
        }
    },
    {
        "object": "FreeCubesSet",
        "replaced-by": {
            "object": "FreeCubesSet",
            "representative": {
                "object": "FixedCubesSet",
                "representative": {
                    "cubes": "[(0, 0, 1), (0, 1, 0), (0, 1, 1), (0, 1, 2), (0, 2, 1), (1, 1, 1)]",
                    "degrees": "[5]",
                    "direction": "(0, -1, 0)",
                    "object": "CubesSet",
                    "root": "(0, 1, 1)"
                }
            }
        },
        "representative": {
            "object": "FixedCubesSet",
            "representative": {
                "cubes": "[(0, 1, 4), (0, 3, 4), (1, 0, 4), (1, 1, 3), (1, 1, 4), (1, 1, 5), (1, 2, 4), (1, 3, 3), (1, 3, 4), (1, 3, 5), (1, 4, 4), (2, 2, 3), (2, 2, 4), (2, 2, 5), (2, 2, 12), (2, 5, 9), (3, 1, 1), (3, 1, 4), (3, 1, 12), (3, 2, 2), (3, 2, 4), (3, 2, 6), (3, 2, 8), (3, 2, 10), (3, 2, 12), (3, 2, 13), (3, 3, 1), (3, 3, 4), (3, 3, 9), (3, 3, 12), (3, 5, 8), (3, 5, 9), (3, 5, 10), (3, 6, 9), (4, 0, 1), (4, 1, 0), (4, 1, 1), (4, 1, 3), (4, 1, 5), (4, 1, 7), (4, 1, 9), (4, 1, 11), (4, 2, 1), (4, 2, 2), (4, 2, 3), (4, 2, 4), (4, 2, 5), (4, 2, 6), (4, 2, 7), (4, 2, 8), (4, 2, 9), (4, 2, 10), (4, 2, 11), (4, 2, 12), (4, 3, 0), (4, 3, 1), (4, 3, 3), (4, 3, 5), (4, 3, 7), (4, 3, 9), (4, 3, 11), (4, 4, 1), (4, 4, 8), (4, 4, 9), (4, 4, 10), (4, 5, 9), (5, 1, 1), (5, 1, 6), (5, 1, 12), (5, 2, 2), (5, 2, 4), (5, 2, 6), (5, 2, 8), (5, 2, 10), (5, 2, 12), (5, 2, 13), (5, 3, 1), (5, 3, 6), (5, 3, 9), (5, 3, 12), (5, 5, 8), (5, 5, 9), (5, 5, 10), (5, 6, 9), (6, 2, 5), (6, 2, 6), (6, 2, 7), (6, 2, 12), (6, 5, 9), (7, 1, 6), (7, 2, 6), (7, 3, 6), (8, 2, 5), (8, 2, 6), (8, 2, 7), (9, 0, 6), (9, 1, 5), (9, 1, 6), (9, 1, 7), (9, 2, 6), (9, 3, 5), (9, 3, 6), (9, 3, 7), (9, 4, 6), (10, 1, 6), (10, 3, 6)]",
                "degrees": "[3, 3, 3, 3, 3, 4, 4, 4, 4, 4, 4, 4, 4, 4, 4, 4, 4, 4, 4, 4, 4, 4, 4, 5, 5, 5, 5, 5, 5, 5, 5, 5, 5]",
                "direction": "(0, -1, 0)",
                "object": "CubesSet",
                "root": "(4, 2, 7)"
            }
        }
    },
    {
        "object": "FreeCubesSet",
        "replaced-by": {
            "object": "FreeCubesSet",
            "representative": {
                "object": "FixedCubesSet",
                "representative": {
                    "cubes": "[(0, 0, 1), (0, 1, 0), (0, 1, 1), (0, 1, 2), (0, 2, 1), (1, 1, 1)]",
                    "degrees": "[5]",
                    "direction": "(0, -1, 0)",
                    "object": "CubesSet",
                    "root": "(0, 1, 1)"
                }
            }
        },
        "representative": {
            "object": "FixedCubesSet",
            "representative": {
                "cubes": "[(0, 1, 4), (0, 3, 4), (1, 0, 4), (1, 1, 3), (1, 1, 4), (1, 1, 5), (1, 2, 4), (1, 3, 3), (1, 3, 4), (1, 3, 5), (1, 4, 4), (2, 2, 3), (2, 2, 4), (2, 2, 5), (3, 1, 1), (3, 1, 4), (3, 1, 11), (3, 2, 2), (3, 2, 4), (3, 2, 6), (3, 2, 8), (3, 2, 10), (3, 3, 1), (3, 3, 4), (3, 3, 11), (4, 0, 1), (4, 0, 11), (4, 1, 0), (4, 1, 1), (4, 1, 3), (4, 1, 5), (4, 1, 7), (4, 1, 9), (4, 1, 11), (4, 1, 12), (4, 2, 1), (4, 2, 2), (4, 2, 3), (4, 2, 4), (4, 2, 5), (4, 2, 6), (4, 2, 7), (4, 2, 8), (4, 2, 9), (4, 2, 10), (4, 2, 11), (4, 3, 0), (4, 3, 1), (4, 3, 3), (4, 3, 5), (4, 3, 7), (4, 3, 9), (4, 3, 11), (4, 3, 12), (4, 4, 1), (4, 4, 11), (5, 1, 1), (5, 1, 6), (5, 1, 11), (5, 2, 2), (5, 2, 4), (5, 2, 6), (5, 2, 8), (5, 2, 10), (5, 3, 1), (5, 3, 6), (5, 3, 11), (6, 2, 5), (6, 2, 6), (6, 2, 7), (7, 0, 6), (7, 1, 5), (7, 1, 6), (7, 1, 7), (7, 2, 6), (7, 3, 5), (7, 3, 6), (7, 3, 7), (7, 4, 6), (8, 1, 6), (8, 3, 6)]",
                "degrees": "[3, 3, 3, 3, 4, 4, 4, 4, 4, 4, 4, 4, 4, 4, 4, 4, 4, 5, 5, 5, 5, 5, 5, 5, 5]",
                "direction": "(0, -1, 0)",
                "object": "CubesSet",
                "root": "(4, 2, 7)"
            }
        }
    },
    {
        "object": "FreeCubesSet",
        "replaced-by": {
            "object": "FreeCubesSet",
            "representative": {
                "object": "FixedCubesSet",
                "representative": {
                    "cubes": "[(0, 0, 1), (0, 1, 0), (0, 1, 1), (0, 1, 2), (0, 2, 1), (1, 1, 1)]",
                    "degrees": "[5]",
                    "direction": "(1, 0, 0)",
                    "object": "CubesSet",
                    "root": "(0, 1, 1)"
                }
            }
        },
        "representative": {
            "object": "FixedCubesSet",
            "representative": {
                "cubes": "[(0, 1, 3), (0, 3, 3), (1, 0, 3), (1, 1, 2), (1, 1, 3), (1, 1, 4), (1, 2, 3), (1, 3, 2), (1, 3, 3), (1, 3, 4), (1, 4, 3), (2, 2, 2), (2, 2, 3), (2, 2, 4), (3, 1, 3), (3, 1, 6), (3, 2, 3), (3, 2, 5), (3, 3, 3), (3, 3, 6), (4, 0, 6), (4, 1, 4), (4, 1, 6), (4, 1, 7), (4, 2, 2), (4, 2, 3), (4, 2, 4), (4, 2, 5), (4, 2, 6), (4, 3, 4), (4, 3, 6), (4, 3, 7), (4, 4, 6), (5, 1, 3), (5, 1, 6), (5, 2, 1), (5, 2, 3), (5, 2, 5), (5, 3, 3), (5, 3, 6), (6, 1, 1), (6, 2, 0), (6, 2, 1), (6, 2, 2), (6, 2, 3), (6, 2, 4), (6, 3, 2), (7, 1, 3), (7, 2, 1), (7, 2, 3), (7, 3, 3), (8, 2, 2), (8, 2, 3), (8, 2, 4), (9, 0, 3), (9, 1, 2), (9, 1, 3), (9, 1, 4), (9, 2, 3), (9, 3, 2), (9, 3, 3), (9, 3, 4), (9, 4, 3), (10, 1, 3), (10, 3, 3)]",
                "degrees": "[3, 3, 3, 3, 4, 4, 4, 4, 4, 4, 4, 4, 4, 5, 5, 5, 5, 5, 5, 5]",
                "direction": "(0, 1, 0)",
                "object": "CubesSet",
                "root": "(6, 2, 2)"
            }
        }
    },
    {
        "object": "FreeCubesSet",
        "replaced-by": {
            "object": "FreeCubesSet",
            "representative": {
                "object": "FixedCubesSet",
                "representative": {
                    "cubes": "[(0, 0, 1), (0, 1, 0), (0, 1, 1), (0, 1, 2), (0, 2, 1), (1, 1, 1)]",
                    "degrees": "[5]",
                    "direction": "(1, 0, 0)",
                    "object": "CubesSet",
                    "root": "(0, 1, 1)"
                }
            }
        },
        "representative": {
            "object": "FixedCubesSet",
            "representative": {
                "cubes": "[(0, 1, 3), (0, 1, 5), (0, 2, 4), (0, 4, 4), (0, 6, 4), (0, 7, 3), (0, 7, 5), (1, 0, 3), (1, 0, 5), (1, 1, 2), (1, 1, 3), (1, 1, 4), (1, 1, 5), (1, 1, 6), (1, 2, 4), (1, 3, 3), (1, 3, 4), (1, 3, 5), (1, 4, 4), (1, 5, 3), (1, 5, 4), (1, 5, 5), (1, 6, 4), (1, 7, 2), (1, 7, 3), (1, 7, 4), (1, 7, 5), (1, 7, 6), (1, 8, 3), (1, 8, 5), (2, 1, 3), (2, 1, 5), (2, 2, 4), (2, 4, 3), (2, 4, 4), (2, 4, 5), (2, 6, 4), (2, 7, 3), (2, 7, 5), (3, 3, 1), (3, 3, 4), (3, 3, 9), (3, 4, 2), (3, 4, 4), (3, 4, 6), (3, 4, 8), (3, 5, 1), (3, 5, 4), (3, 5, 9), (4, 2, 1), (4, 2, 9), (4, 3, 0), (4, 3, 1), (4, 3, 3), (4, 3, 5), (4, 3, 7), (4, 3, 9), (4, 3, 10), (4, 4, 1), (4, 4, 2), (4, 4, 3), (4, 4, 4), (4, 4, 5), (4, 4, 6), (4, 4, 7), (4, 4, 8), (4, 4, 9), (4, 5, 0), (4, 5, 1), (4, 5, 3), (4, 5, 5), (4, 5, 7), (4, 5, 9), (4, 5, 10), (4, 6, 1), (4, 6, 9), (5, 3, 1), (5, 3, 6), (5, 3, 9), (5, 4, 2), (5, 4, 4), (5, 4, 6), (5, 4, 8), (5, 5, 1), (5, 5, 6), (5, 5, 9), (6, 4, 5), (6, 4, 6), (6, 4, 7), (7, 2, 6), (7, 3, 5), (7, 3, 6), (7, 3, 7), (7, 4, 6), (7, 5, 5), (7, 5, 6), (7, 5, 7), (7, 6, 6), (8, 3, 6), (8, 5, 6)]",
                "degrees": "[3, 3, 3, 3, 3, 4, 4, 4, 4, 4, 4, 4, 4, 4, 4, 4, 4, 4, 4, 4, 4, 5, 5, 5, 5, 5, 5, 5, 5, 5, 5]",
                "direction": "(0, -1, 0)",
                "object": "CubesSet",
                "root": "(3, 4, 4)"
            }
        }
    },
    {
        "object": "FreeCubesSet",
        "replaced-by": {
            "object": "FreeCubesSet",
            "representative": {
                "object": "FixedCubesSet",
                "representative": {
                    "cubes": "[(0, 0, 1), (0, 1, 0), (0, 1, 1), (0, 1, 2), (0, 2, 1), (1, 1, 1)]",
                    "degrees": "[5]",
                    "direction": "(1, 0, 0)",
                    "object": "CubesSet",
                    "root": "(0, 1, 1)"
                }
            }
        },
        "representative": {
            "object": "FixedCubesSet",
            "representative": {
                "cubes": "[(0, 1, 5), (0, 3, 5), (1, 0, 5), (1, 1, 4), (1, 1, 5), (1, 1, 6), (1, 2, 5), (1, 3, 4), (1, 3, 5), (1, 3, 6), (1, 4, 5), (2, 2, 1), (2, 2, 4), (2, 2, 5), (2, 2, 6), (3, 1, 1), (3, 1, 5), (3, 2, 0), (3, 2, 1), (3, 2, 3), (3, 2, 5), (3, 3, 1), (3, 3, 5), (4, 1, 2), (4, 1, 4), (4, 2, 1), (4, 2, 2), (4, 2, 3), (4, 2, 4), (4, 2, 5), (4, 2, 6), (4, 3, 2), (4, 3, 4), (5, 1, 1), (5, 1, 5), (5, 1, 10), (5, 2, 0), (5, 2, 1), (5, 2, 3), (5, 2, 5), (5, 2, 7), (5, 2, 9), (5, 3, 1), (5, 3, 5), (5, 3, 10), (6, 0, 10), (6, 1, 6), (6, 1, 8), (6, 1, 10), (6, 1, 11), (6, 2, 1), (6, 2, 4), (6, 2, 5), (6, 2, 6), (6, 2, 7), (6, 2, 8), (6, 2, 9), (6, 2, 10), (6, 3, 6), (6, 3, 8), (6, 3, 10), (6, 3, 11), (6, 4, 10), (7, 1, 2), (7, 1, 5), (7, 1, 10), (7, 2, 3), (7, 2, 5), (7, 2, 7), (7, 2, 9), (7, 3, 2), (7, 3, 5), (7, 3, 10), (8, 0, 2), (8, 1, 1), (8, 1, 2), (8, 1, 4), (8, 2, 2), (8, 2, 3), (8, 2, 4), (8, 2, 5), (8, 2, 6), (8, 3, 1), (8, 3, 2), (8, 3, 4), (8, 4, 2), (9, 1, 2), (9, 1, 5), (9, 2, 3), (9, 2, 5), (9, 3, 2), (9, 3, 5), (10, 2, 4), (10, 2, 5), (10, 2, 6), (11, 0, 5), (11, 1, 4), (11, 1, 5), (11, 1, 6), (11, 2, 5), (11, 3, 4), (11, 3, 5), (11, 3, 6), (11, 4, 5), (12, 1, 5), (12, 3, 5)]",
                "degrees": "[3, 3, 3, 3, 3, 4, 4, 4, 4, 4, 4, 4, 4, 4, 4, 4, 4, 4, 4, 4, 4, 4, 4, 5, 5, 5, 5, 5, 5, 5, 5, 5, 5]",
                "direction": "(0, -1, 0)",
                "object": "CubesSet",
                "root": "(5, 2, 5)"
            }
        }
    },
    {
        "object": "FreeCubesSet",
        "replaced-by": {
            "object": "FreeCubesSet",
            "representative": {
                "object": "FixedCubesSet",
                "representative": {
                    "cubes": "[(0, 0, 1), (0, 1, 0), (0, 1, 1), (0, 1, 2), (0, 2, 1), (1, 1, 1)]",
                    "degrees": "[5]",
                    "direction": "(1, 0, 0)",
                    "object": "CubesSet",
                    "root": "(0, 1, 1)"
                }
            }
        },
        "representative": {
            "object": "FixedCubesSet",
            "representative": {
                "cubes": "[(0, 1, 4), (0, 1, 8), (0, 3, 4), (0, 3, 8), (1, 0, 4), (1, 0, 8), (1, 1, 3), (1, 1, 4), (1, 1, 5), (1, 1, 7), (1, 1, 8), (1, 1, 9), (1, 2, 4), (1, 2, 8), (1, 3, 3), (1, 3, 4), (1, 3, 5), (1, 3, 7), (1, 3, 8), (1, 3, 9), (1, 4, 4), (1, 4, 8), (2, 2, 3), (2, 2, 4), (2, 2, 5), (2, 2, 7), (2, 2, 8), (2, 2, 9), (2, 2, 12), (3, 1, 1), (3, 1, 4), (3, 1, 8), (3, 1, 12), (3, 2, 2), (3, 2, 4), (3, 2, 6), (3, 2, 8), (3, 2, 10), (3, 2, 12), (3, 2, 13), (3, 3, 1), (3, 3, 4), (3, 3, 8), (3, 3, 12), (4, 0, 1), (4, 1, 0), (4, 1, 1), (4, 1, 3), (4, 1, 5), (4, 1, 7), (4, 1, 9), (4, 1, 11), (4, 2, 1), (4, 2, 2), (4, 2, 3), (4, 2, 4), (4, 2, 5), (4, 2, 6), (4, 2, 7), (4, 2, 8), (4, 2, 9), (4, 2, 10), (4, 2, 11), (4, 2, 12), (4, 3, 0), (4, 3, 1), (4, 3, 3), (4, 3, 5), (4, 3, 7), (4, 3, 9), (4, 3, 11), (4, 4, 1), (5, 1, 1), (5, 1, 6), (5, 1, 12), (5, 2, 2), (5, 2, 4), (5, 2, 6), (5, 2, 8), (5, 2, 10), (5, 2, 12), (5, 2, 13), (5, 3, 1), (5, 3, 6), (5, 3, 12), (6, 2, 5), (6, 2, 6), (6, 2, 7), (6, 2, 12), (7, 1, 6), (7, 2, 6), (7, 3, 6), (8, 1, 5), (8, 1, 7), (8, 2, 4), (8, 2, 5), (8, 2, 6), (8, 2, 7), (8, 2, 8), (8, 3, 5), (8, 3, 7), (9, 2, 5), (9, 2, 7)]",
                "degrees": "[3, 3, 3, 3, 3, 4, 4, 4, 4, 4, 4, 4, 4, 4, 4, 4, 4, 4, 4, 4, 4, 4, 5, 5, 5, 5, 5, 5, 5, 5, 5, 5]",
                "direction": "(0, -1, 0)",
                "object": "CubesSet",
                "root": "(4, 2, 7)"
            }
        }
    },
    {
        "object": "FreeCubesSet",
        "replaced-by": {
            "object": "FreeCubesSet",
            "representative": {
                "object": "FixedCubesSet",
                "representative": {
                    "cubes": "[(0, 0, 1), (0, 1, 0), (0, 1, 1), (0, 1, 2), (0, 2, 1), (1, 1, 1)]",
                    "degrees": "[5]",
                    "direction": "(0, -1, 0)",
                    "object": "CubesSet",
                    "root": "(0, 1, 1)"
                }
            }
        },
        "representative": {
            "object": "FixedCubesSet",
            "representative": {
                "cubes": "[(0, 1, 4), (0, 3, 4), (1, 0, 4), (1, 1, 3), (1, 1, 4), (1, 1, 5), (1, 2, 4), (1, 3, 3), (1, 3, 4), (1, 3, 5), (1, 4, 4), (2, 2, 3), (2, 2, 4), (2, 2, 5), (2, 2, 12), (2, 5, 9), (3, 1, 1), (3, 1, 4), (3, 1, 12), (3, 2, 2), (3, 2, 4), (3, 2, 6), (3, 2, 8), (3, 2, 10), (3, 2, 12), (3, 2, 13), (3, 3, 1), (3, 3, 4), (3, 3, 9), (3, 3, 12), (3, 5, 8), (3, 5, 9), (3, 5, 10), (3, 6, 9), (4, 0, 1), (4, 1, 0), (4, 1, 1), (4, 1, 3), (4, 1, 5), (4, 1, 7), (4, 1, 9), (4, 1, 11), (4, 2, 1), (4, 2, 2), (4, 2, 3), (4, 2, 4), (4, 2, 5), (4, 2, 6), (4, 2, 7), (4, 2, 8), (4, 2, 9), (4, 2, 10), (4, 2, 11), (4, 2, 12), (4, 3, 0), (4, 3, 1), (4, 3, 3), (4, 3, 5), (4, 3, 7), (4, 3, 9), (4, 3, 11), (4, 4, 1), (4, 4, 8), (4, 4, 9), (4, 4, 10), (4, 5, 9), (5, 1, 1), (5, 1, 6), (5, 1, 12), (5, 2, 2), (5, 2, 4), (5, 2, 6), (5, 2, 8), (5, 2, 10), (5, 2, 12), (5, 2, 13), (5, 3, 1), (5, 3, 6), (5, 3, 9), (5, 3, 12), (5, 5, 8), (5, 5, 9), (5, 5, 10), (5, 6, 9), (6, 2, 5), (6, 2, 6), (6, 2, 7), (6, 2, 12), (6, 5, 9), (7, 0, 6), (7, 1, 5), (7, 1, 6), (7, 1, 7), (7, 2, 6), (7, 3, 5), (7, 3, 6), (7, 3, 7), (7, 4, 6), (8, 1, 6), (8, 3, 6)]",
                "degrees": "[3, 3, 3, 3, 3, 4, 4, 4, 4, 4, 4, 4, 4, 4, 4, 4, 4, 4, 4, 4, 4, 5, 5, 5, 5, 5, 5, 5, 5, 5, 5]",
                "direction": "(0, -1, 0)",
                "object": "CubesSet",
                "root": "(4, 2, 7)"
            }
        }
    },
    {
        "object": "FreeCubesSet",
        "replaced-by": {
            "object": "FreeCubesSet",
            "representative": {
                "object": "FixedCubesSet",
                "representative": {
                    "cubes": "[(0, 0, 1), (0, 1, 0), (0, 1, 1), (0, 1, 2), (0, 2, 1), (1, 1, 1)]",
                    "degrees": "[5]",
                    "direction": "(1, 0, 0)",
                    "object": "CubesSet",
                    "root": "(0, 1, 1)"
                }
            }
        },
        "representative": {
            "object": "FixedCubesSet",
            "representative": {
                "cubes": "[(0, 1, 4), (0, 3, 4), (1, 0, 4), (1, 1, 3), (1, 1, 4), (1, 1, 5), (1, 2, 4), (1, 3, 3), (1, 3, 4), (1, 3, 5), (1, 4, 4), (2, 2, 3), (2, 2, 4), (2, 2, 5), (2, 2, 10), (3, 1, 1), (3, 1, 4), (3, 1, 10), (3, 2, 2), (3, 2, 4), (3, 2, 6), (3, 2, 8), (3, 2, 10), (3, 2, 11), (3, 3, 1), (3, 3, 4), (3, 3, 10), (4, 0, 1), (4, 1, 0), (4, 1, 1), (4, 1, 3), (4, 1, 5), (4, 1, 7), (4, 1, 9), (4, 2, 1), (4, 2, 2), (4, 2, 3), (4, 2, 4), (4, 2, 5), (4, 2, 6), (4, 2, 7), (4, 2, 8), (4, 2, 9), (4, 2, 10), (4, 3, 0), (4, 3, 1), (4, 3, 3), (4, 3, 5), (4, 3, 7), (4, 3, 9), (4, 4, 1), (5, 1, 1), (5, 1, 6), (5, 1, 10), (5, 2, 2), (5, 2, 4), (5, 2, 6), (5, 2, 8), (5, 2, 10), (5, 2, 11), (5, 3, 1), (5, 3, 6), (5, 3, 10), (6, 2, 5), (6, 2, 6), (6, 2, 7), (6, 2, 10), (7, 1, 6), (7, 2, 6), (7, 3, 6), (8, 1, 5), (8, 1, 7), (8, 2, 4), (8, 2, 5), (8, 2, 6), (8, 2, 7), (8, 2, 8), (8, 3, 5), (8, 3, 7), (9, 2, 5), (9, 2, 7)]",
                "degrees": "[3, 3, 3, 3, 4, 4, 4, 4, 4, 4, 4, 4, 4, 4, 4, 4, 4, 5, 5, 5, 5, 5, 5, 5, 5]",
                "direction": "(0, -1, 0)",
                "object": "CubesSet",
                "root": "(5, 2, 6)"
            }
        }
    },
    {
        "object": "FreeCubesSet",
        "replaced-by": {
            "object": "FreeCubesSet",
            "representative": {
                "object": "FixedCubesSet",
                "representative": {
                    "cubes": "[(0, 0, 1), (0, 1, 0), (0, 1, 1), (0, 1, 2), (0, 2, 1), (1, 1, 1)]",
                    "degrees": "[5]",
                    "direction": "(0, -1, 0)",
                    "object": "CubesSet",
                    "root": "(0, 1, 1)"
                }
            }
        },
        "representative": {
            "object": "FixedCubesSet",
            "representative": {
                "cubes": "[(0, 1, 4), (0, 3, 4), (1, 0, 4), (1, 1, 3), (1, 1, 4), (1, 1, 5), (1, 2, 4), (1, 3, 3), (1, 3, 4), (1, 3, 5), (1, 4, 4), (2, 2, 3), (2, 2, 4), (2, 2, 5), (2, 2, 12), (2, 5, 9), (3, 1, 1), (3, 1, 4), (3, 1, 12), (3, 2, 2), (3, 2, 4), (3, 2, 6), (3, 2, 8), (3, 2, 10), (3, 2, 12), (3, 2, 13), (3, 3, 1), (3, 3, 4), (3, 3, 9), (3, 3, 12), (3, 5, 8), (3, 5, 9), (3, 5, 10), (3, 6, 9), (4, 0, 1), (4, 1, 0), (4, 1, 1), (4, 1, 3), (4, 1, 5), (4, 1, 7), (4, 1, 9), (4, 1, 11), (4, 2, 1), (4, 2, 2), (4, 2, 3), (4, 2, 4), (4, 2, 5), (4, 2, 6), (4, 2, 7), (4, 2, 8), (4, 2, 9), (4, 2, 10), (4, 2, 11), (4, 2, 12), (4, 3, 0), (4, 3, 1), (4, 3, 3), (4, 3, 5), (4, 3, 7), (4, 3, 9), (4, 3, 11), (4, 4, 1), (4, 4, 8), (4, 4, 9), (4, 4, 10), (4, 5, 9), (5, 1, 1), (5, 1, 6), (5, 1, 12), (5, 2, 2), (5, 2, 4), (5, 2, 6), (5, 2, 8), (5, 2, 10), (5, 2, 12), (5, 2, 13), (5, 3, 1), (5, 3, 6), (5, 3, 9), (5, 3, 12), (5, 5, 8), (5, 5, 9), (5, 5, 10), (5, 6, 9), (6, 2, 5), (6, 2, 6), (6, 2, 7), (6, 2, 12), (6, 5, 9), (7, 1, 6), (7, 2, 6), (7, 3, 6), (8, 2, 5), (8, 2, 6), (8, 2, 7), (9, 0, 6), (9, 1, 5), (9, 1, 6), (9, 1, 7), (9, 2, 6), (9, 3, 5), (9, 3, 6), (9, 3, 7), (9, 4, 6), (10, 1, 6), (10, 3, 6)]",
                "degrees": "[3, 3, 3, 3, 3, 4, 4, 4, 4, 4, 4, 4, 4, 4, 4, 4, 4, 4, 4, 4, 4, 4, 4, 5, 5, 5, 5, 5, 5, 5, 5, 5, 5]",
                "direction": "(0, 1, 0)",
                "object": "CubesSet",
                "root": "(4, 2, 7)"
            }
        }
    },
    {
        "object": "FreeCubesSet",
        "replaced-by": {
            "object": "FreeCubesSet",
            "representative": {
                "object": "FixedCubesSet",
                "representative": {
                    "cubes": "[(0, 0, 1), (0, 1, 0), (0, 1, 1), (0, 1, 2), (0, 2, 1), (1, 1, 1)]",
                    "degrees": "[5]",
                    "direction": "(1, 0, 0)",
                    "object": "CubesSet",
                    "root": "(0, 1, 1)"
                }
            }
        },
        "representative": {
            "object": "FixedCubesSet",
            "representative": {
                "cubes": "[(0, 1, 4), (0, 1, 8), (0, 3, 4), (0, 3, 8), (1, 0, 4), (1, 0, 8), (1, 1, 3), (1, 1, 4), (1, 1, 5), (1, 1, 7), (1, 1, 8), (1, 1, 9), (1, 2, 4), (1, 2, 8), (1, 3, 3), (1, 3, 4), (1, 3, 5), (1, 3, 7), (1, 3, 8), (1, 3, 9), (1, 4, 4), (1, 4, 8), (2, 2, 3), (2, 2, 4), (2, 2, 5), (2, 2, 7), (2, 2, 8), (2, 2, 9), (3, 1, 1), (3, 1, 4), (3, 1, 8), (3, 1, 11), (3, 2, 2), (3, 2, 4), (3, 2, 6), (3, 2, 8), (3, 2, 10), (3, 3, 1), (3, 3, 4), (3, 3, 8), (3, 3, 11), (4, 0, 1), (4, 0, 11), (4, 1, 0), (4, 1, 1), (4, 1, 3), (4, 1, 5), (4, 1, 7), (4, 1, 9), (4, 1, 11), (4, 1, 12), (4, 2, 1), (4, 2, 2), (4, 2, 3), (4, 2, 4), (4, 2, 5), (4, 2, 6), (4, 2, 7), (4, 2, 8), (4, 2, 9), (4, 2, 10), (4, 2, 11), (4, 3, 0), (4, 3, 1), (4, 3, 3), (4, 3, 5), (4, 3, 7), (4, 3, 9), (4, 3, 11), (4, 3, 12), (4, 4, 1), (4, 4, 11), (5, 1, 1), (5, 1, 6), (5, 1, 11), (5, 2, 2), (5, 2, 4), (5, 2, 6), (5, 2, 8), (5, 2, 10), (5, 3, 1), (5, 3, 6), (5, 3, 11), (6, 2, 5), (6, 2, 6), (6, 2, 7), (7, 0, 6), (7, 1, 5), (7, 1, 6), (7, 1, 7), (7, 2, 6), (7, 3, 5), (7, 3, 6), (7, 3, 7), (7, 4, 6), (8, 1, 6), (8, 3, 6)]",
                "degrees": "[3, 3, 3, 3, 3, 4, 4, 4, 4, 4, 4, 4, 4, 4, 4, 4, 4, 4, 4, 4, 5, 5, 5, 5, 5, 5, 5, 5, 5, 5]",
                "direction": "(0, -1, 0)",
                "object": "CubesSet",
                "root": "(4, 2, 5)"
            }
        }
    },
    {
        "object": "FreeCubesSet",
        "replaced-by": {
            "object": "FreeCubesSet",
            "representative": {
                "object": "FixedCubesSet",
                "representative": {
                    "cubes": "[(0, 0, 1), (0, 1, 0), (0, 1, 1), (0, 1, 2), (0, 2, 1), (1, 1, 1)]",
                    "degrees": "[5]",
                    "direction": "(1, 0, 0)",
                    "object": "CubesSet",
                    "root": "(0, 1, 1)"
                }
            }
        },
        "representative": {
            "object": "FixedCubesSet",
            "representative": {
                "cubes": "[(0, 1, 4), (0, 3, 4), (1, 0, 4), (1, 1, 3), (1, 1, 4), (1, 1, 5), (1, 2, 4), (1, 3, 3), (1, 3, 4), (1, 3, 5), (1, 4, 4), (2, 2, 3), (2, 2, 4), (2, 2, 5), (2, 2, 8), (3, 1, 4), (3, 1, 8), (3, 2, 4), (3, 2, 6), (3, 2, 8), (3, 2, 9), (3, 3, 4), (3, 3, 8), (4, 1, 5), (4, 1, 7), (4, 2, 3), (4, 2, 4), (4, 2, 5), (4, 2, 6), (4, 2, 7), (4, 2, 8), (4, 3, 5), (4, 3, 7), (5, 1, 1), (5, 1, 4), (5, 1, 8), (5, 2, 2), (5, 2, 4), (5, 2, 6), (5, 2, 8), (5, 2, 9), (5, 3, 1), (5, 3, 4), (5, 3, 8), (6, 0, 1), (6, 1, 0), (6, 1, 1), (6, 1, 3), (6, 2, 1), (6, 2, 2), (6, 2, 3), (6, 2, 4), (6, 2, 5), (6, 2, 8), (6, 3, 0), (6, 3, 1), (6, 3, 3), (6, 4, 1), (7, 1, 1), (7, 1, 4), (7, 1, 7), (7, 2, 2), (7, 2, 4), (7, 2, 6), (7, 3, 1), (7, 3, 4), (7, 3, 7), (8, 0, 7), (8, 1, 5), (8, 1, 7), (8, 1, 8), (8, 2, 3), (8, 2, 4), (8, 2, 5), (8, 2, 6), (8, 2, 7), (8, 3, 5), (8, 3, 7), (8, 3, 8), (8, 4, 7), (9, 1, 4), (9, 1, 7), (9, 2, 4), (9, 2, 6), (9, 3, 4), (9, 3, 7), (10, 2, 3), (10, 2, 4), (10, 2, 5), (11, 0, 4), (11, 1, 3), (11, 1, 4), (11, 1, 5), (11, 2, 4), (11, 3, 3), (11, 3, 4), (11, 3, 5), (11, 4, 4), (12, 1, 4), (12, 3, 4)]",
                "degrees": "[3, 3, 3, 3, 3, 4, 4, 4, 4, 4, 4, 4, 4, 4, 4, 4, 4, 4, 4, 4, 4, 5, 5, 5, 5, 5, 5, 5, 5, 5, 5]",
                "direction": "(0, -1, 0)",
                "object": "CubesSet",
                "root": "(5, 2, 4)"
            }
        }
    },
    {
        "object": "FreeCubesSet",
        "replaced-by": {
            "object": "FreeCubesSet",
            "representative": {
                "object": "FixedCubesSet",
                "representative": {
                    "cubes": "[(0, 0, 1), (0, 1, 0), (0, 1, 1), (0, 1, 2), (0, 2, 1), (1, 1, 1)]",
                    "degrees": "[5]",
                    "direction": "(0, -1, 0)",
                    "object": "CubesSet",
                    "root": "(0, 1, 1)"
                }
            }
        },
        "representative": {
            "object": "FixedCubesSet",
            "representative": {
                "cubes": "[(0, 1, 4), (0, 3, 4), (1, 0, 4), (1, 1, 3), (1, 1, 4), (1, 1, 5), (1, 2, 4), (1, 3, 3), (1, 3, 4), (1, 3, 5), (1, 4, 4), (2, 2, 3), (2, 2, 4), (2, 2, 5), (2, 2, 12), (2, 5, 9), (3, 1, 1), (3, 1, 4), (3, 1, 12), (3, 2, 2), (3, 2, 4), (3, 2, 6), (3, 2, 8), (3, 2, 10), (3, 2, 12), (3, 2, 13), (3, 3, 1), (3, 3, 4), (3, 3, 9), (3, 3, 12), (3, 5, 8), (3, 5, 9), (3, 5, 10), (3, 6, 9), (4, 0, 1), (4, 1, 0), (4, 1, 1), (4, 1, 3), (4, 1, 5), (4, 1, 7), (4, 1, 9), (4, 1, 11), (4, 2, 1), (4, 2, 2), (4, 2, 3), (4, 2, 4), (4, 2, 5), (4, 2, 6), (4, 2, 7), (4, 2, 8), (4, 2, 9), (4, 2, 10), (4, 2, 11), (4, 2, 12), (4, 3, 0), (4, 3, 1), (4, 3, 3), (4, 3, 5), (4, 3, 7), (4, 3, 9), (4, 3, 11), (4, 4, 1), (4, 4, 8), (4, 4, 9), (4, 4, 10), (4, 5, 9), (5, 1, 1), (5, 1, 6), (5, 1, 12), (5, 2, 2), (5, 2, 4), (5, 2, 6), (5, 2, 8), (5, 2, 10), (5, 2, 12), (5, 2, 13), (5, 3, 1), (5, 3, 6), (5, 3, 9), (5, 3, 12), (5, 5, 8), (5, 5, 9), (5, 5, 10), (5, 6, 9), (6, 2, 5), (6, 2, 6), (6, 2, 7), (6, 2, 12), (6, 5, 9), (7, 0, 6), (7, 1, 5), (7, 1, 6), (7, 1, 7), (7, 2, 6), (7, 3, 5), (7, 3, 6), (7, 3, 7), (7, 4, 6), (8, 1, 6), (8, 3, 6)]",
                "degrees": "[3, 3, 3, 3, 3, 4, 4, 4, 4, 4, 4, 4, 4, 4, 4, 4, 4, 4, 4, 4, 4, 5, 5, 5, 5, 5, 5, 5, 5, 5, 5]",
                "direction": "(0, 1, 0)",
                "object": "CubesSet",
                "root": "(4, 2, 7)"
            }
        }
    },
    {
        "object": "FreeCubesSet",
        "replaced-by": {
            "object": "FreeCubesSet",
            "representative": {
                "object": "FixedCubesSet",
                "representative": {
                    "cubes": "[(0, 0, 1), (0, 1, 0), (0, 1, 1), (0, 1, 2), (0, 2, 1), (1, 1, 1)]",
                    "degrees": "[5]",
                    "direction": "(0, -1, 0)",
                    "object": "CubesSet",
                    "root": "(0, 1, 1)"
                }
            }
        },
        "representative": {
            "object": "FixedCubesSet",
            "representative": {
                "cubes": "[(0, 1, 2), (0, 3, 2), (1, 0, 2), (1, 1, 1), (1, 1, 2), (1, 1, 3), (1, 2, 2), (1, 3, 1), (1, 3, 2), (1, 3, 3), (1, 4, 2), (2, 2, 1), (2, 2, 2), (2, 2, 3), (3, 1, 2), (3, 1, 7), (3, 2, 2), (3, 2, 4), (3, 2, 6), (3, 3, 2), (3, 3, 7), (4, 0, 7), (4, 1, 1), (4, 1, 3), (4, 1, 5), (4, 1, 7), (4, 1, 8), (4, 2, 0), (4, 2, 1), (4, 2, 2), (4, 2, 3), (4, 2, 4), (4, 2, 5), (4, 2, 6), (4, 2, 7), (4, 3, 1), (4, 3, 3), (4, 3, 5), (4, 3, 7), (4, 3, 8), (4, 4, 7), (5, 1, 4), (5, 1, 7), (5, 2, 2), (5, 2, 4), (5, 2, 6), (5, 3, 4), (5, 3, 7), (6, 2, 3), (6, 2, 4), (6, 2, 5), (7, 0, 4), (7, 1, 3), (7, 1, 4), (7, 1, 5), (7, 2, 4), (7, 3, 3), (7, 3, 4), (7, 3, 5), (7, 4, 4), (8, 1, 4), (8, 3, 4)]",
                "degrees": "[3, 3, 3, 4, 4, 4, 4, 4, 4, 4, 4, 4, 4, 5, 5, 5, 5, 5, 5]",
                "direction": "(0, -1, 0)",
                "object": "CubesSet",
                "root": "(4, 2, 1)"
            }
        }
    },
    {
        "object": "FreeCubesSet",
        "replaced-by": {
            "object": "FreeCubesSet",
            "representative": {
                "object": "FixedCubesSet",
                "representative": {
                    "cubes": "[(0, 0, 1), (0, 1, 0), (0, 1, 1), (0, 1, 2), (0, 2, 1), (1, 1, 1)]",
                    "degrees": "[5]",
                    "direction": "(1, 0, 0)",
                    "object": "CubesSet",
                    "root": "(0, 1, 1)"
                }
            }
        },
        "representative": {
            "object": "FixedCubesSet",
            "representative": {
                "cubes": "[(0, 1, 2), (0, 3, 2), (1, 0, 2), (1, 1, 1), (1, 1, 2), (1, 1, 3), (1, 2, 2), (1, 3, 1), (1, 3, 2), (1, 3, 3), (1, 4, 2), (2, 2, 1), (2, 2, 2), (2, 2, 3), (3, 1, 2), (3, 1, 5), (3, 2, 2), (3, 2, 4), (3, 3, 2), (3, 3, 5), (4, 0, 5), (4, 1, 3), (4, 1, 5), (4, 1, 6), (4, 2, 1), (4, 2, 2), (4, 2, 3), (4, 2, 4), (4, 2, 5), (4, 3, 3), (4, 3, 5), (4, 3, 6), (4, 4, 5), (5, 1, 2), (5, 1, 5), (5, 2, 2), (5, 2, 4), (5, 3, 2), (5, 3, 5), (6, 1, 1), (6, 2, 0), (6, 2, 1), (6, 2, 2), (6, 2, 3), (6, 3, 1), (7, 1, 2), (7, 2, 2), (7, 3, 2), (8, 2, 1), (8, 2, 2), (8, 2, 3), (9, 1, 2), (9, 2, 2), (9, 3, 2), (10, 1, 1), (10, 1, 3), (10, 2, 0), (10, 2, 1), (10, 2, 2), (10, 2, 3), (10, 2, 4), (10, 3, 1), (10, 3, 3), (11, 2, 1), (11, 2, 3)]",
                "degrees": "[3, 3, 3, 4, 4, 4, 4, 4, 4, 4, 4, 4, 4, 4, 5, 5, 5, 5, 5, 5]",
                "direction": "(0, -1, 0)",
                "object": "CubesSet",
                "root": "(6, 2, 1)"
            }
        }
    },
    {
        "object": "FreeCubesSet",
        "replaced-by": {
            "object": "FreeCubesSet",
            "representative": {
                "object": "FixedCubesSet",
                "representative": {
                    "cubes": "[(0, 0, 1), (0, 1, 0), (0, 1, 1), (0, 1, 2), (0, 2, 1), (1, 1, 1)]",
                    "degrees": "[5]",
                    "direction": "(1, 0, 0)",
                    "object": "CubesSet",
                    "root": "(0, 1, 1)"
                }
            }
        },
        "representative": {
            "object": "FixedCubesSet",
            "representative": {
                "cubes": "[(0, 1, 4), (0, 1, 6), (0, 2, 5), (0, 4, 5), (0, 6, 5), (0, 7, 4), (0, 7, 6), (1, 0, 4), (1, 0, 6), (1, 1, 3), (1, 1, 4), (1, 1, 5), (1, 1, 6), (1, 1, 7), (1, 2, 5), (1, 3, 4), (1, 3, 5), (1, 3, 6), (1, 4, 5), (1, 5, 4), (1, 5, 5), (1, 5, 6), (1, 6, 5), (1, 7, 3), (1, 7, 4), (1, 7, 5), (1, 7, 6), (1, 7, 7), (1, 8, 4), (1, 8, 6), (2, 1, 4), (2, 1, 6), (2, 2, 5), (2, 4, 1), (2, 4, 4), (2, 4, 5), (2, 4, 6), (2, 6, 5), (2, 7, 4), (2, 7, 6), (3, 3, 1), (3, 3, 5), (3, 3, 10), (3, 4, 0), (3, 4, 1), (3, 4, 3), (3, 4, 5), (3, 4, 7), (3, 4, 9), (3, 5, 1), (3, 5, 5), (3, 5, 10), (4, 2, 10), (4, 3, 2), (4, 3, 4), (4, 3, 6), (4, 3, 8), (4, 3, 10), (4, 3, 11), (4, 4, 1), (4, 4, 2), (4, 4, 3), (4, 4, 4), (4, 4, 5), (4, 4, 6), (4, 4, 7), (4, 4, 8), (4, 4, 9), (4, 4, 10), (4, 5, 2), (4, 5, 4), (4, 5, 6), (4, 5, 8), (4, 5, 10), (4, 5, 11), (4, 6, 10), (5, 3, 1), (5, 3, 7), (5, 3, 10), (5, 4, 0), (5, 4, 1), (5, 4, 3), (5, 4, 5), (5, 4, 7), (5, 4, 9), (5, 5, 1), (5, 5, 7), (5, 5, 10), (6, 4, 1), (6, 4, 6), (6, 4, 7), (6, 4, 8), (7, 2, 7), (7, 3, 6), (7, 3, 7), (7, 3, 8), (7, 4, 7), (7, 5, 6), (7, 5, 7), (7, 5, 8), (7, 6, 7), (8, 3, 7), (8, 5, 7)]",
                "degrees": "[3, 3, 3, 3, 3, 4, 4, 4, 4, 4, 4, 4, 4, 4, 4, 4, 4, 4, 4, 4, 4, 4, 5, 5, 5, 5, 5, 5, 5, 5, 5, 5]",
                "direction": "(0, -1, 0)",
                "object": "CubesSet",
                "root": "(3, 4, 5)"
            }
        }
    },
    {
        "object": "FreeCubesSet",
        "replaced-by": {
            "object": "FreeCubesSet",
            "representative": {
                "object": "FixedCubesSet",
                "representative": {
                    "cubes": "[(0, 0, 1), (0, 1, 0), (0, 1, 1), (0, 1, 2), (0, 2, 1), (1, 1, 1)]",
                    "degrees": "[5]",
                    "direction": "(1, 0, 0)",
                    "object": "CubesSet",
                    "root": "(0, 1, 1)"
                }
            }
        },
        "representative": {
            "object": "FixedCubesSet",
            "representative": {
                "cubes": "[(0, 1, 4), (0, 1, 8), (0, 3, 4), (0, 3, 8), (1, 0, 4), (1, 0, 8), (1, 1, 3), (1, 1, 4), (1, 1, 5), (1, 1, 7), (1, 1, 8), (1, 1, 9), (1, 2, 4), (1, 2, 8), (1, 3, 3), (1, 3, 4), (1, 3, 5), (1, 3, 7), (1, 3, 8), (1, 3, 9), (1, 4, 4), (1, 4, 8), (2, 2, 3), (2, 2, 4), (2, 2, 5), (2, 2, 7), (2, 2, 8), (2, 2, 9), (3, 1, 1), (3, 1, 4), (3, 1, 8), (3, 1, 13), (3, 2, 2), (3, 2, 4), (3, 2, 6), (3, 2, 8), (3, 2, 10), (3, 2, 12), (3, 3, 1), (3, 3, 4), (3, 3, 8), (3, 3, 13), (4, 0, 1), (4, 0, 13), (4, 1, 0), (4, 1, 1), (4, 1, 3), (4, 1, 5), (4, 1, 7), (4, 1, 9), (4, 1, 11), (4, 1, 13), (4, 1, 14), (4, 2, 1), (4, 2, 2), (4, 2, 3), (4, 2, 4), (4, 2, 5), (4, 2, 6), (4, 2, 7), (4, 2, 8), (4, 2, 9), (4, 2, 10), (4, 2, 11), (4, 2, 12), (4, 2, 13), (4, 3, 0), (4, 3, 1), (4, 3, 3), (4, 3, 5), (4, 3, 7), (4, 3, 9), (4, 3, 11), (4, 3, 13), (4, 3, 14), (4, 4, 1), (4, 4, 13), (5, 1, 1), (5, 1, 6), (5, 1, 10), (5, 1, 13), (5, 2, 2), (5, 2, 4), (5, 2, 6), (5, 2, 8), (5, 2, 10), (5, 2, 12), (5, 3, 1), (5, 3, 6), (5, 3, 10), (5, 3, 13), (6, 2, 5), (6, 2, 6), (6, 2, 7), (6, 2, 9), (6, 2, 10), (6, 2, 11), (7, 0, 6), (7, 0, 10), (7, 1, 5), (7, 1, 6), (7, 1, 7), (7, 1, 9), (7, 1, 10), (7, 1, 11), (7, 2, 6), (7, 2, 10), (7, 3, 5), (7, 3, 6), (7, 3, 7), (7, 3, 9), (7, 3, 10), (7, 3, 11), (7, 4, 6), (7, 4, 10), (8, 1, 6), (8, 1, 10), (8, 3, 6), (8, 3, 10)]",
                "degrees": "[3, 3, 3, 3, 3, 3, 4, 4, 4, 4, 4, 4, 4, 4, 4, 4, 4, 4, 4, 4, 4, 4, 4, 4, 4, 5, 5, 5, 5, 5, 5, 5, 5, 5, 5, 5, 5]",
                "direction": "(0, -1, 0)",
                "object": "CubesSet",
                "root": "(4, 2, 7)"
            }
        }
    },
    {
        "object": "FreeCubesSet",
        "replaced-by": {
            "object": "FreeCubesSet",
            "representative": {
                "object": "FixedCubesSet",
                "representative": {
                    "cubes": "[(0, 0, 1), (0, 1, 0), (0, 1, 1), (0, 1, 2), (0, 2, 1), (1, 1, 1)]",
                    "degrees": "[5]",
                    "direction": "(0, -1, 0)",
                    "object": "CubesSet",
                    "root": "(0, 1, 1)"
                }
            }
        },
        "representative": {
            "object": "FixedCubesSet",
            "representative": {
                "cubes": "[(0, 1, 2), (0, 3, 2), (1, 0, 2), (1, 1, 1), (1, 1, 2), (1, 1, 3), (1, 2, 2), (1, 3, 1), (1, 3, 2), (1, 3, 3), (1, 4, 2), (2, 2, 1), (2, 2, 2), (2, 2, 3), (3, 1, 2), (3, 2, 2), (3, 3, 2), (4, 2, 1), (4, 2, 2), (4, 2, 3), (4, 4, 2), (4, 6, 2), (4, 7, 1), (4, 7, 3), (5, 0, 2), (5, 1, 1), (5, 1, 2), (5, 1, 3), (5, 2, 2), (5, 3, 1), (5, 3, 2), (5, 3, 3), (5, 4, 2), (5, 5, 1), (5, 5, 2), (5, 5, 3), (5, 6, 2), (5, 7, 0), (5, 7, 1), (5, 7, 2), (5, 7, 3), (5, 7, 4), (5, 8, 1), (5, 8, 3), (6, 2, 2), (6, 4, 1), (6, 4, 2), (6, 4, 3), (6, 6, 2), (6, 7, 1), (6, 7, 3), (7, 3, 2), (7, 4, 2), (7, 5, 2), (8, 3, 1), (8, 3, 3), (8, 4, 0), (8, 4, 1), (8, 4, 2), (8, 4, 3), (8, 4, 4), (8, 5, 1), (8, 5, 3), (9, 4, 1), (9, 4, 3)]",
                "degrees": "[3, 3, 3, 4, 4, 4, 4, 4, 4, 4, 4, 4, 4, 4, 5, 5, 5, 5, 5, 5]",
                "direction": "(0, 0, -1)",
                "object": "CubesSet",
                "root": "(5, 1, 2)"
            }
        }
    },
    {
        "object": "FreeCubesSet",
        "replaced-by": {
            "object": "FreeCubesSet",
            "representative": {
                "object": "FixedCubesSet",
                "representative": {
                    "cubes": "[(0, 0, 1), (0, 1, 0), (0, 1, 1), (0, 1, 2), (0, 2, 1), (1, 1, 1)]",
                    "degrees": "[5]",
                    "direction": "(1, 0, 0)",
                    "object": "CubesSet",
                    "root": "(0, 1, 1)"
                }
            }
        },
        "representative": {
            "object": "FixedCubesSet",
            "representative": {
                "cubes": "[(0, 1, 4), (0, 3, 4), (1, 0, 4), (1, 1, 3), (1, 1, 4), (1, 1, 5), (1, 2, 4), (1, 3, 3), (1, 3, 4), (1, 3, 5), (1, 4, 4), (2, 2, 3), (2, 2, 4), (2, 2, 5), (2, 2, 10), (3, 1, 1), (3, 1, 4), (3, 1, 10), (3, 2, 2), (3, 2, 4), (3, 2, 6), (3, 2, 8), (3, 2, 10), (3, 2, 11), (3, 3, 1), (3, 3, 4), (3, 3, 10), (4, 0, 1), (4, 1, 0), (4, 1, 1), (4, 1, 3), (4, 1, 5), (4, 1, 7), (4, 1, 9), (4, 2, 1), (4, 2, 2), (4, 2, 3), (4, 2, 4), (4, 2, 5), (4, 2, 6), (4, 2, 7), (4, 2, 8), (4, 2, 9), (4, 2, 10), (4, 3, 0), (4, 3, 1), (4, 3, 3), (4, 3, 5), (4, 3, 7), (4, 3, 9), (4, 4, 1), (5, 1, 1), (5, 1, 6), (5, 1, 10), (5, 2, 2), (5, 2, 4), (5, 2, 6), (5, 2, 8), (5, 2, 10), (5, 2, 11), (5, 3, 1), (5, 3, 6), (5, 3, 10), (6, 2, 5), (6, 2, 6), (6, 2, 7), (6, 2, 10), (6, 4, 6), (6, 5, 5), (6, 5, 7), (7, 1, 6), (7, 2, 6), (7, 3, 5), (7, 3, 6), (7, 3, 7), (7, 4, 6), (7, 5, 4), (7, 5, 5), (7, 5, 6), (7, 5, 7), (7, 5, 8), (7, 6, 5), (7, 6, 7), (8, 2, 5), (8, 2, 6), (8, 2, 7), (8, 4, 6), (8, 5, 5), (8, 5, 7), (9, 1, 6), (9, 2, 6), (9, 3, 6), (10, 1, 5), (10, 1, 7), (10, 2, 4), (10, 2, 5), (10, 2, 6), (10, 2, 7), (10, 2, 8), (10, 3, 5), (10, 3, 7), (11, 2, 5), (11, 2, 7)]",
                "degrees": "[3, 3, 3, 3, 3, 4, 4, 4, 4, 4, 4, 4, 4, 4, 4, 4, 4, 4, 4, 4, 4, 4, 5, 5, 5, 5, 5, 5, 5, 5, 5, 5]",
                "direction": "(0, 1, 0)",
                "object": "CubesSet",
                "root": "(5, 2, 6)"
            }
        }
    },
    {
        "object": "FreeCubesSet",
        "replaced-by": {
            "object": "FreeCubesSet",
            "representative": {
                "object": "FixedCubesSet",
                "representative": {
                    "cubes": "[(0, 0, 1), (0, 1, 0), (0, 1, 1), (0, 1, 2), (0, 2, 1), (1, 1, 1)]",
                    "degrees": "[5]",
                    "direction": "(1, 0, 0)",
                    "object": "CubesSet",
                    "root": "(0, 1, 1)"
                }
            }
        },
        "representative": {
            "object": "FixedCubesSet",
            "representative": {
                "cubes": "[(0, 1, 4), (0, 3, 4), (1, 0, 4), (1, 1, 3), (1, 1, 4), (1, 1, 5), (1, 2, 4), (1, 3, 3), (1, 3, 4), (1, 3, 5), (1, 4, 4), (2, 2, 3), (2, 2, 4), (2, 2, 5), (3, 1, 1), (3, 1, 4), (3, 1, 11), (3, 2, 2), (3, 2, 4), (3, 2, 6), (3, 2, 8), (3, 2, 10), (3, 3, 1), (3, 3, 4), (3, 3, 11), (4, 0, 1), (4, 0, 11), (4, 1, 0), (4, 1, 1), (4, 1, 3), (4, 1, 5), (4, 1, 7), (4, 1, 9), (4, 1, 11), (4, 1, 12), (4, 2, 1), (4, 2, 2), (4, 2, 3), (4, 2, 4), (4, 2, 5), (4, 2, 6), (4, 2, 7), (4, 2, 8), (4, 2, 9), (4, 2, 10), (4, 2, 11), (4, 3, 0), (4, 3, 1), (4, 3, 3), (4, 3, 5), (4, 3, 7), (4, 3, 9), (4, 3, 11), (4, 3, 12), (4, 4, 1), (4, 4, 11), (5, 1, 1), (5, 1, 6), (5, 1, 11), (5, 2, 2), (5, 2, 4), (5, 2, 6), (5, 2, 8), (5, 2, 10), (5, 3, 1), (5, 3, 6), (5, 3, 11), (6, 2, 5), (6, 2, 6), (6, 2, 7), (6, 4, 6), (6, 5, 5), (6, 5, 7), (7, 1, 6), (7, 2, 6), (7, 3, 5), (7, 3, 6), (7, 3, 7), (7, 4, 6), (7, 5, 4), (7, 5, 5), (7, 5, 6), (7, 5, 7), (7, 5, 8), (7, 6, 5), (7, 6, 7), (8, 2, 5), (8, 2, 6), (8, 2, 7), (8, 4, 6), (8, 5, 5), (8, 5, 7), (9, 1, 6), (9, 2, 6), (9, 3, 6), (10, 1, 5), (10, 1, 7), (10, 2, 4), (10, 2, 5), (10, 2, 6), (10, 2, 7), (10, 2, 8), (10, 3, 5), (10, 3, 7), (11, 2, 5), (11, 2, 7)]",
                "degrees": "[3, 3, 3, 3, 3, 4, 4, 4, 4, 4, 4, 4, 4, 4, 4, 4, 4, 4, 4, 4, 4, 4, 4, 5, 5, 5, 5, 5, 5, 5, 5, 5, 5]",
                "direction": "(0, 1, 0)",
                "object": "CubesSet",
                "root": "(5, 2, 6)"
            }
        }
    },
    {
        "object": "FreeCubesSet",
        "replaced-by": {
            "object": "FreeCubesSet",
            "representative": {
                "object": "FixedCubesSet",
                "representative": {
                    "cubes": "[(0, 0, 1), (0, 1, 0), (0, 1, 1), (0, 1, 2), (0, 2, 1), (1, 1, 1)]",
                    "degrees": "[5]",
                    "direction": "(0, -1, 0)",
                    "object": "CubesSet",
                    "root": "(0, 1, 1)"
                }
            }
        },
        "representative": {
            "object": "FixedCubesSet",
            "representative": {
                "cubes": "[(0, 1, 4), (0, 3, 4), (1, 0, 4), (1, 1, 3), (1, 1, 4), (1, 1, 5), (1, 2, 4), (1, 3, 3), (1, 3, 4), (1, 3, 5), (1, 4, 4), (2, 2, 3), (2, 2, 4), (2, 2, 5), (2, 2, 10), (3, 1, 1), (3, 1, 4), (3, 1, 10), (3, 2, 2), (3, 2, 4), (3, 2, 6), (3, 2, 8), (3, 2, 10), (3, 2, 11), (3, 3, 1), (3, 3, 4), (3, 3, 10), (4, 0, 1), (4, 1, 0), (4, 1, 1), (4, 1, 3), (4, 1, 5), (4, 1, 7), (4, 1, 9), (4, 2, 1), (4, 2, 2), (4, 2, 3), (4, 2, 4), (4, 2, 5), (4, 2, 6), (4, 2, 7), (4, 2, 8), (4, 2, 9), (4, 2, 10), (4, 3, 0), (4, 3, 1), (4, 3, 3), (4, 3, 5), (4, 3, 7), (4, 3, 9), (4, 4, 1), (5, 1, 1), (5, 1, 6), (5, 1, 10), (5, 2, 2), (5, 2, 4), (5, 2, 6), (5, 2, 8), (5, 2, 10), (5, 2, 11), (5, 3, 1), (5, 3, 6), (5, 3, 10), (6, 2, 5), (6, 2, 6), (6, 2, 7), (6, 2, 10), (7, 1, 6), (7, 2, 6), (7, 3, 6), (8, 1, 5), (8, 1, 7), (8, 2, 4), (8, 2, 5), (8, 2, 6), (8, 2, 7), (8, 2, 8), (8, 3, 5), (8, 3, 7), (9, 2, 5), (9, 2, 7)]",
                "degrees": "[3, 3, 3, 3, 4, 4, 4, 4, 4, 4, 4, 4, 4, 4, 4, 4, 4, 5, 5, 5, 5, 5, 5, 5, 5]",
                "direction": "(0, -1, 0)",
                "object": "CubesSet",
                "root": "(4, 2, 7)"
            }
        }
    },
    {
        "object": "FreeCubesSet",
        "replaced-by": {
            "object": "FreeCubesSet",
            "representative": {
                "object": "FixedCubesSet",
                "representative": {
                    "cubes": "[(0, 0, 1), (0, 1, 0), (0, 1, 1), (0, 1, 2), (0, 2, 1), (1, 1, 1)]",
                    "degrees": "[5]",
                    "direction": "(1, 0, 0)",
                    "object": "CubesSet",
                    "root": "(0, 1, 1)"
                }
            }
        },
        "representative": {
            "object": "FixedCubesSet",
            "representative": {
                "cubes": "[(0, 1, 4), (0, 1, 8), (0, 3, 4), (0, 3, 8), (1, 0, 4), (1, 0, 8), (1, 1, 3), (1, 1, 4), (1, 1, 5), (1, 1, 7), (1, 1, 8), (1, 1, 9), (1, 2, 4), (1, 2, 8), (1, 3, 3), (1, 3, 4), (1, 3, 5), (1, 3, 7), (1, 3, 8), (1, 3, 9), (1, 4, 4), (1, 4, 8), (2, 2, 3), (2, 2, 4), (2, 2, 5), (2, 2, 7), (2, 2, 8), (2, 2, 9), (2, 2, 12), (3, 1, 1), (3, 1, 4), (3, 1, 8), (3, 1, 12), (3, 2, 2), (3, 2, 4), (3, 2, 6), (3, 2, 8), (3, 2, 10), (3, 2, 12), (3, 2, 13), (3, 3, 1), (3, 3, 4), (3, 3, 8), (3, 3, 12), (4, 0, 1), (4, 1, 0), (4, 1, 1), (4, 1, 3), (4, 1, 5), (4, 1, 7), (4, 1, 9), (4, 1, 11), (4, 2, 1), (4, 2, 2), (4, 2, 3), (4, 2, 4), (4, 2, 5), (4, 2, 6), (4, 2, 7), (4, 2, 8), (4, 2, 9), (4, 2, 10), (4, 2, 11), (4, 2, 12), (4, 3, 0), (4, 3, 1), (4, 3, 3), (4, 3, 5), (4, 3, 7), (4, 3, 9), (4, 3, 11), (4, 4, 1), (5, 1, 1), (5, 1, 6), (5, 1, 12), (5, 2, 2), (5, 2, 4), (5, 2, 6), (5, 2, 8), (5, 2, 10), (5, 2, 12), (5, 2, 13), (5, 3, 1), (5, 3, 6), (5, 3, 12), (6, 2, 5), (6, 2, 6), (6, 2, 7), (6, 2, 12), (7, 0, 6), (7, 1, 5), (7, 1, 6), (7, 1, 7), (7, 2, 6), (7, 3, 5), (7, 3, 6), (7, 3, 7), (7, 4, 6), (8, 1, 6), (8, 3, 6)]",
                "degrees": "[3, 3, 3, 3, 3, 4, 4, 4, 4, 4, 4, 4, 4, 4, 4, 4, 4, 4, 4, 4, 4, 5, 5, 5, 5, 5, 5, 5, 5, 5, 5]",
                "direction": "(0, -1, 0)",
                "object": "CubesSet",
                "root": "(4, 2, 7)"
            }
        }
    },
    {
        "object": "FreeCubesSet",
        "replaced-by": {
            "object": "FreeCubesSet",
            "representative": {
                "object": "FixedCubesSet",
                "representative": {
                    "cubes": "[(0, 0, 1), (0, 1, 0), (0, 1, 1), (0, 1, 2), (0, 2, 1), (1, 1, 1)]",
                    "degrees": "[5]",
                    "direction": "(0, -1, 0)",
                    "object": "CubesSet",
                    "root": "(0, 1, 1)"
                }
            }
        },
        "representative": {
            "object": "FixedCubesSet",
            "representative": {
                "cubes": "[(0, 1, 3), (0, 1, 5), (0, 2, 4), (0, 4, 4), (0, 6, 4), (0, 7, 3), (0, 7, 5), (1, 0, 3), (1, 0, 5), (1, 1, 2), (1, 1, 3), (1, 1, 4), (1, 1, 5), (1, 1, 6), (1, 2, 4), (1, 3, 3), (1, 3, 4), (1, 3, 5), (1, 4, 4), (1, 5, 3), (1, 5, 4), (1, 5, 5), (1, 6, 4), (1, 7, 2), (1, 7, 3), (1, 7, 4), (1, 7, 5), (1, 7, 6), (1, 8, 3), (1, 8, 5), (2, 1, 3), (2, 1, 5), (2, 2, 4), (2, 4, 3), (2, 4, 4), (2, 4, 5), (2, 6, 4), (2, 7, 3), (2, 7, 5), (3, 3, 4), (3, 3, 9), (3, 4, 4), (3, 4, 6), (3, 4, 8), (3, 5, 4), (3, 5, 9), (4, 2, 9), (4, 3, 5), (4, 3, 7), (4, 3, 9), (4, 3, 10), (4, 4, 3), (4, 4, 4), (4, 4, 5), (4, 4, 6), (4, 4, 7), (4, 4, 8), (4, 4, 9), (4, 5, 5), (4, 5, 7), (4, 5, 9), (4, 5, 10), (4, 6, 9), (5, 3, 1), (5, 3, 4), (5, 3, 9), (5, 4, 2), (5, 4, 4), (5, 4, 6), (5, 4, 8), (5, 5, 1), (5, 5, 4), (5, 5, 9), (6, 2, 1), (6, 3, 0), (6, 3, 1), (6, 3, 3), (6, 4, 1), (6, 4, 2), (6, 4, 3), (6, 4, 4), (6, 4, 5), (6, 5, 0), (6, 5, 1), (6, 5, 3), (6, 6, 1), (7, 3, 1), (7, 3, 4), (7, 4, 2), (7, 4, 4), (7, 5, 1), (7, 5, 4), (8, 4, 3), (8, 4, 4), (8, 4, 5), (9, 2, 4), (9, 3, 3), (9, 3, 4), (9, 3, 5), (9, 4, 4), (9, 5, 3), (9, 5, 4), (9, 5, 5), (9, 6, 4), (10, 3, 4), (10, 5, 4)]",
                "degrees": "[3, 3, 3, 3, 3, 4, 4, 4, 4, 4, 4, 4, 4, 4, 4, 4, 4, 4, 4, 4, 4, 4, 4, 5, 5, 5, 5, 5, 5, 5, 5, 5, 5]",
                "direction": "(0, -1, 0)",
                "object": "CubesSet",
                "root": "(3, 4, 4)"
            }
        }
    },
    {
        "object": "FreeCubesSet",
        "replaced-by": {
            "object": "FreeCubesSet",
            "representative": {
                "object": "FixedCubesSet",
                "representative": {
                    "cubes": "[(0, 0, 1), (0, 1, 0), (0, 1, 1), (0, 1, 2), (0, 2, 1), (1, 1, 1)]",
                    "degrees": "[5]",
                    "direction": "(0, -1, 0)",
                    "object": "CubesSet",
                    "root": "(0, 1, 1)"
                }
            }
        },
        "representative": {
            "object": "FixedCubesSet",
            "representative": {
                "cubes": "[(0, 1, 4), (0, 3, 4), (1, 0, 4), (1, 1, 3), (1, 1, 4), (1, 1, 5), (1, 2, 4), (1, 3, 3), (1, 3, 4), (1, 3, 5), (1, 4, 4), (2, 2, 3), (2, 2, 4), (2, 2, 5), (3, 1, 1), (3, 1, 4), (3, 1, 9), (3, 2, 2), (3, 2, 4), (3, 2, 6), (3, 2, 8), (3, 3, 1), (3, 3, 4), (3, 3, 9), (4, 0, 1), (4, 0, 9), (4, 1, 0), (4, 1, 1), (4, 1, 3), (4, 1, 5), (4, 1, 7), (4, 1, 9), (4, 1, 10), (4, 2, 1), (4, 2, 2), (4, 2, 3), (4, 2, 4), (4, 2, 5), (4, 2, 6), (4, 2, 7), (4, 2, 8), (4, 2, 9), (4, 3, 0), (4, 3, 1), (4, 3, 3), (4, 3, 5), (4, 3, 7), (4, 3, 9), (4, 3, 10), (4, 4, 1), (4, 4, 9), (5, 1, 1), (5, 1, 6), (5, 1, 9), (5, 2, 2), (5, 2, 4), (5, 2, 6), (5, 2, 8), (5, 3, 1), (5, 3, 6), (5, 3, 9), (6, 2, 5), (6, 2, 6), (6, 2, 7), (7, 1, 6), (7, 2, 6), (7, 3, 6), (8, 2, 5), (8, 2, 6), (8, 2, 7), (9, 0, 6), (9, 1, 5), (9, 1, 6), (9, 1, 7), (9, 2, 6), (9, 3, 5), (9, 3, 6), (9, 3, 7), (9, 4, 6), (10, 1, 6), (10, 3, 6)]",
                "degrees": "[3, 3, 3, 3, 4, 4, 4, 4, 4, 4, 4, 4, 4, 4, 4, 4, 4, 5, 5, 5, 5, 5, 5, 5, 5]",
                "direction": "(0, -1, 0)",
                "object": "CubesSet",
                "root": "(4, 2, 7)"
            }
        }
    },
    {
        "object": "FreeCubesSet",
        "replaced-by": {
            "object": "FreeCubesSet",
            "representative": {
                "object": "FixedCubesSet",
                "representative": {
                    "cubes": "[(0, 0, 1), (0, 1, 0), (0, 1, 1), (0, 1, 2), (0, 2, 1), (1, 1, 1)]",
                    "degrees": "[5]",
                    "direction": "(1, 0, 0)",
                    "object": "CubesSet",
                    "root": "(0, 1, 1)"
                }
            }
        },
        "representative": {
            "object": "FixedCubesSet",
            "representative": {
                "cubes": "[(0, 1, 5), (0, 1, 7), (0, 2, 6), (0, 4, 6), (0, 6, 6), (0, 7, 5), (0, 7, 7), (1, 0, 5), (1, 0, 7), (1, 1, 4), (1, 1, 5), (1, 1, 6), (1, 1, 7), (1, 1, 8), (1, 2, 6), (1, 3, 5), (1, 3, 6), (1, 3, 7), (1, 4, 6), (1, 5, 5), (1, 5, 6), (1, 5, 7), (1, 6, 6), (1, 7, 4), (1, 7, 5), (1, 7, 6), (1, 7, 7), (1, 7, 8), (1, 8, 5), (1, 8, 7), (2, 1, 5), (2, 1, 7), (2, 2, 6), (2, 4, 5), (2, 4, 6), (2, 4, 7), (2, 6, 6), (2, 7, 5), (2, 7, 7), (3, 3, 1), (3, 3, 6), (3, 3, 11), (3, 4, 2), (3, 4, 4), (3, 4, 6), (3, 4, 8), (3, 4, 10), (3, 5, 1), (3, 5, 6), (3, 5, 11), (4, 2, 1), (4, 2, 11), (4, 3, 0), (4, 3, 1), (4, 3, 3), (4, 3, 5), (4, 3, 7), (4, 3, 9), (4, 3, 11), (4, 3, 12), (4, 4, 1), (4, 4, 2), (4, 4, 3), (4, 4, 4), (4, 4, 5), (4, 4, 6), (4, 4, 7), (4, 4, 8), (4, 4, 9), (4, 4, 10), (4, 4, 11), (4, 5, 0), (4, 5, 1), (4, 5, 3), (4, 5, 5), (4, 5, 7), (4, 5, 9), (4, 5, 11), (4, 5, 12), (4, 6, 1), (4, 6, 11), (5, 3, 1), (5, 3, 4), (5, 3, 11), (5, 4, 2), (5, 4, 4), (5, 4, 6), (5, 4, 8), (5, 4, 10), (5, 5, 1), (5, 5, 4), (5, 5, 11), (6, 4, 3), (6, 4, 4), (6, 4, 5), (7, 2, 4), (7, 3, 3), (7, 3, 4), (7, 3, 5), (7, 4, 4), (7, 5, 3), (7, 5, 4), (7, 5, 5), (7, 6, 4), (8, 3, 4), (8, 5, 4)]",
                "degrees": "[3, 3, 3, 3, 3, 4, 4, 4, 4, 4, 4, 4, 4, 4, 4, 4, 4, 4, 4, 4, 4, 4, 4, 5, 5, 5, 5, 5, 5, 5, 5, 5, 5]",
                "direction": "(0, -1, 0)",
                "object": "CubesSet",
                "root": "(3, 4, 6)"
            }
        }
    },
    {
        "object": "FreeCubesSet",
        "replaced-by": {
            "object": "FreeCubesSet",
            "representative": {
                "object": "FixedCubesSet",
                "representative": {
                    "cubes": "[(0, 0, 1), (0, 1, 0), (0, 1, 1), (0, 1, 2), (0, 2, 1), (1, 1, 1)]",
                    "degrees": "[5]",
                    "direction": "(0, -1, 0)",
                    "object": "CubesSet",
                    "root": "(0, 1, 1)"
                }
            }
        },
        "representative": {
            "object": "FixedCubesSet",
            "representative": {
                "cubes": "[(0, 1, 4), (0, 3, 4), (1, 0, 4), (1, 1, 3), (1, 1, 4), (1, 1, 5), (1, 2, 4), (1, 3, 3), (1, 3, 4), (1, 3, 5), (1, 4, 4), (2, 2, 3), (2, 2, 4), (2, 2, 5), (2, 2, 8), (3, 1, 4), (3, 1, 8), (3, 2, 4), (3, 2, 6), (3, 2, 8), (3, 2, 9), (3, 3, 4), (3, 3, 8), (4, 1, 5), (4, 1, 7), (4, 2, 3), (4, 2, 4), (4, 2, 5), (4, 2, 6), (4, 2, 7), (4, 2, 8), (4, 3, 5), (4, 3, 7), (5, 1, 1), (5, 1, 4), (5, 1, 8), (5, 2, 2), (5, 2, 4), (5, 2, 6), (5, 2, 8), (5, 2, 9), (5, 3, 1), (5, 3, 4), (5, 3, 8), (6, 0, 1), (6, 1, 0), (6, 1, 1), (6, 1, 3), (6, 2, 1), (6, 2, 2), (6, 2, 3), (6, 2, 4), (6, 2, 5), (6, 2, 8), (6, 3, 0), (6, 3, 1), (6, 3, 3), (6, 4, 1), (7, 1, 1), (7, 1, 4), (7, 2, 2), (7, 2, 4), (7, 3, 1), (7, 3, 4), (8, 2, 3), (8, 2, 4), (8, 2, 5), (9, 0, 4), (9, 1, 3), (9, 1, 4), (9, 1, 5), (9, 2, 4), (9, 3, 3), (9, 3, 4), (9, 3, 5), (9, 4, 4), (10, 1, 4), (10, 3, 4)]",
                "degrees": "[3, 3, 3, 3, 4, 4, 4, 4, 4, 4, 4, 4, 4, 4, 4, 4, 5, 5, 5, 5, 5, 5, 5, 5]",
                "direction": "(0, -1, 0)",
                "object": "CubesSet",
                "root": "(3, 2, 4)"
            }
        }
    },
    {
        "object": "FreeCubesSet",
        "replaced-by": {
            "object": "FreeCubesSet",
            "representative": {
                "object": "FixedCubesSet",
                "representative": {
                    "cubes": "[(0, 0, 1), (0, 1, 0), (0, 1, 1), (0, 1, 2), (0, 2, 1), (1, 1, 1)]",
                    "degrees": "[5]",
                    "direction": "(0, -1, 0)",
                    "object": "CubesSet",
                    "root": "(0, 1, 1)"
                }
            }
        },
        "representative": {
            "object": "FixedCubesSet",
            "representative": {
                "cubes": "[(0, 1, 4), (0, 3, 4), (1, 0, 4), (1, 1, 3), (1, 1, 4), (1, 1, 5), (1, 2, 4), (1, 3, 3), (1, 3, 4), (1, 3, 5), (1, 4, 4), (2, 2, 3), (2, 2, 4), (2, 2, 5), (2, 2, 12), (2, 5, 9), (3, 1, 1), (3, 1, 4), (3, 1, 12), (3, 2, 2), (3, 2, 4), (3, 2, 6), (3, 2, 8), (3, 2, 10), (3, 2, 12), (3, 2, 13), (3, 3, 1), (3, 3, 4), (3, 3, 9), (3, 3, 12), (3, 5, 8), (3, 5, 9), (3, 5, 10), (3, 6, 9), (4, 0, 1), (4, 1, 0), (4, 1, 1), (4, 1, 3), (4, 1, 5), (4, 1, 7), (4, 1, 9), (4, 1, 11), (4, 2, 1), (4, 2, 2), (4, 2, 3), (4, 2, 4), (4, 2, 5), (4, 2, 6), (4, 2, 7), (4, 2, 8), (4, 2, 9), (4, 2, 10), (4, 2, 11), (4, 2, 12), (4, 3, 0), (4, 3, 1), (4, 3, 3), (4, 3, 5), (4, 3, 7), (4, 3, 9), (4, 3, 11), (4, 4, 1), (4, 4, 8), (4, 4, 9), (4, 4, 10), (4, 5, 9), (5, 1, 1), (5, 1, 6), (5, 1, 12), (5, 2, 2), (5, 2, 4), (5, 2, 6), (5, 2, 8), (5, 2, 10), (5, 2, 12), (5, 2, 13), (5, 3, 1), (5, 3, 6), (5, 3, 9), (5, 3, 12), (5, 5, 8), (5, 5, 9), (5, 5, 10), (5, 6, 9), (6, 2, 5), (6, 2, 6), (6, 2, 7), (6, 2, 12), (6, 5, 9), (7, 1, 6), (7, 2, 6), (7, 3, 6), (8, 1, 5), (8, 1, 7), (8, 2, 4), (8, 2, 5), (8, 2, 6), (8, 2, 7), (8, 2, 8), (8, 3, 5), (8, 3, 7), (9, 2, 5), (9, 2, 7)]",
                "degrees": "[3, 3, 3, 3, 3, 4, 4, 4, 4, 4, 4, 4, 4, 4, 4, 4, 4, 4, 4, 4, 4, 4, 5, 5, 5, 5, 5, 5, 5, 5, 5, 5]",
                "direction": "(0, -1, 0)",
                "object": "CubesSet",
                "root": "(4, 2, 7)"
            }
        }
    },
    {
        "object": "FreeCubesSet",
        "replaced-by": {
            "object": "FreeCubesSet",
            "representative": {
                "object": "FixedCubesSet",
                "representative": {
                    "cubes": "[(0, 0, 1), (0, 1, 0), (0, 1, 1), (0, 1, 2), (0, 2, 1), (1, 1, 1)]",
                    "degrees": "[5]",
                    "direction": "(1, 0, 0)",
                    "object": "CubesSet",
                    "root": "(0, 1, 1)"
                }
            }
        },
        "representative": {
            "object": "FixedCubesSet",
            "representative": {
                "cubes": "[(0, 1, 4), (0, 3, 4), (1, 0, 4), (1, 1, 3), (1, 1, 4), (1, 1, 5), (1, 2, 4), (1, 3, 3), (1, 3, 4), (1, 3, 5), (1, 4, 4), (2, 2, 3), (2, 2, 4), (2, 2, 5), (3, 1, 1), (3, 1, 4), (3, 1, 11), (3, 2, 2), (3, 2, 4), (3, 2, 6), (3, 2, 8), (3, 2, 10), (3, 3, 1), (3, 3, 4), (3, 3, 11), (4, 0, 1), (4, 0, 11), (4, 1, 0), (4, 1, 1), (4, 1, 3), (4, 1, 5), (4, 1, 7), (4, 1, 9), (4, 1, 11), (4, 1, 12), (4, 2, 1), (4, 2, 2), (4, 2, 3), (4, 2, 4), (4, 2, 5), (4, 2, 6), (4, 2, 7), (4, 2, 8), (4, 2, 9), (4, 2, 10), (4, 2, 11), (4, 3, 0), (4, 3, 1), (4, 3, 3), (4, 3, 5), (4, 3, 7), (4, 3, 9), (4, 3, 11), (4, 3, 12), (4, 4, 1), (4, 4, 11), (5, 1, 1), (5, 1, 6), (5, 1, 11), (5, 2, 2), (5, 2, 4), (5, 2, 6), (5, 2, 8), (5, 2, 10), (5, 3, 1), (5, 3, 6), (5, 3, 11), (6, 2, 5), (6, 2, 6), (6, 2, 7), (6, 4, 6), (6, 5, 5), (6, 5, 7), (7, 1, 6), (7, 2, 6), (7, 3, 5), (7, 3, 6), (7, 3, 7), (7, 4, 6), (7, 5, 4), (7, 5, 5), (7, 5, 6), (7, 5, 7), (7, 5, 8), (7, 6, 5), (7, 6, 7), (8, 2, 5), (8, 2, 6), (8, 2, 7), (8, 4, 6), (8, 5, 5), (8, 5, 7), (9, 1, 6), (9, 2, 6), (9, 3, 6), (10, 1, 5), (10, 1, 7), (10, 2, 4), (10, 2, 5), (10, 2, 6), (10, 2, 7), (10, 2, 8), (10, 3, 5), (10, 3, 7), (11, 2, 5), (11, 2, 7)]",
                "degrees": "[3, 3, 3, 3, 3, 4, 4, 4, 4, 4, 4, 4, 4, 4, 4, 4, 4, 4, 4, 4, 4, 4, 4, 5, 5, 5, 5, 5, 5, 5, 5, 5, 5]",
                "direction": "(0, -1, 0)",
                "object": "CubesSet",
                "root": "(5, 2, 6)"
            }
        }
    },
    {
        "object": "FreeCubesSet",
        "replaced-by": {
            "object": "FreeCubesSet",
            "representative": {
                "object": "FixedCubesSet",
                "representative": {
                    "cubes": "[(0, 0, 1), (0, 1, 0), (0, 1, 1), (0, 1, 2), (0, 2, 1), (1, 1, 1)]",
                    "degrees": "[5]",
                    "direction": "(0, -1, 0)",
                    "object": "CubesSet",
                    "root": "(0, 1, 1)"
                }
            }
        },
        "representative": {
            "object": "FixedCubesSet",
            "representative": {
                "cubes": "[(0, 1, 3), (0, 1, 5), (0, 2, 4), (0, 4, 4), (0, 6, 4), (0, 7, 3), (0, 7, 5), (1, 0, 3), (1, 0, 5), (1, 1, 2), (1, 1, 3), (1, 1, 4), (1, 1, 5), (1, 1, 6), (1, 2, 4), (1, 3, 3), (1, 3, 4), (1, 3, 5), (1, 4, 4), (1, 5, 3), (1, 5, 4), (1, 5, 5), (1, 6, 4), (1, 7, 2), (1, 7, 3), (1, 7, 4), (1, 7, 5), (1, 7, 6), (1, 8, 3), (1, 8, 5), (2, 1, 3), (2, 1, 5), (2, 2, 4), (2, 4, 3), (2, 4, 4), (2, 4, 5), (2, 6, 4), (2, 7, 3), (2, 7, 5), (3, 3, 1), (3, 3, 4), (3, 4, 2), (3, 4, 4), (3, 5, 1), (3, 5, 4), (4, 2, 1), (4, 3, 0), (4, 3, 1), (4, 3, 3), (4, 4, 1), (4, 4, 2), (4, 4, 3), (4, 4, 4), (4, 4, 5), (4, 5, 0), (4, 5, 1), (4, 5, 3), (4, 6, 1), (5, 3, 1), (5, 3, 4), (5, 3, 7), (5, 4, 2), (5, 4, 4), (5, 4, 6), (5, 5, 1), (5, 5, 4), (5, 5, 7), (6, 2, 7), (6, 3, 5), (6, 3, 7), (6, 3, 8), (6, 4, 3), (6, 4, 4), (6, 4, 5), (6, 4, 6), (6, 4, 7), (6, 5, 5), (6, 5, 7), (6, 5, 8), (6, 6, 7), (7, 3, 4), (7, 3, 7), (7, 4, 4), (7, 4, 6), (7, 5, 4), (7, 5, 7), (8, 4, 3), (8, 4, 4), (8, 4, 5), (9, 2, 4), (9, 3, 3), (9, 3, 4), (9, 3, 5), (9, 4, 4), (9, 5, 3), (9, 5, 4), (9, 5, 5), (9, 6, 4), (10, 3, 4), (10, 5, 4)]",
                "degrees": "[3, 3, 3, 3, 3, 4, 4, 4, 4, 4, 4, 4, 4, 4, 4, 4, 4, 4, 4, 4, 4, 5, 5, 5, 5, 5, 5, 5, 5, 5, 5]",
                "direction": "(0, -1, 0)",
                "object": "CubesSet",
                "root": "(3, 4, 4)"
            }
        }
    },
    {
        "object": "FreeCubesSet",
        "replaced-by": {
            "object": "FreeCubesSet",
            "representative": {
                "object": "FixedCubesSet",
                "representative": {
                    "cubes": "[(0, 0, 1), (0, 1, 0), (0, 1, 1), (0, 1, 2), (0, 2, 1), (1, 1, 1)]",
                    "degrees": "[5]",
                    "direction": "(1, 0, 0)",
                    "object": "CubesSet",
                    "root": "(0, 1, 1)"
                }
            }
        },
        "representative": {
            "object": "FixedCubesSet",
            "representative": {
                "cubes": "[(0, 1, 1), (0, 1, 3), (0, 2, 2), (0, 4, 2), (1, 0, 1), (1, 0, 3), (1, 1, 0), (1, 1, 1), (1, 1, 2), (1, 1, 3), (1, 1, 4), (1, 2, 2), (1, 3, 1), (1, 3, 2), (1, 3, 3), (1, 4, 2), (1, 5, 2), (2, 1, 1), (2, 1, 3), (2, 2, 2), (2, 4, 1), (2, 4, 2), (2, 4, 3), (2, 6, 2), (2, 7, 1), (2, 7, 3), (3, 3, 2), (3, 4, 2), (3, 5, 1), (3, 5, 2), (3, 5, 3), (3, 6, 2), (3, 7, 0), (3, 7, 1), (3, 7, 2), (3, 7, 3), (3, 7, 4), (3, 8, 1), (3, 8, 3), (4, 1, 1), (4, 1, 3), (4, 2, 2), (4, 4, 1), (4, 4, 2), (4, 4, 3), (4, 6, 2), (4, 7, 1), (4, 7, 3), (5, 0, 1), (5, 0, 3), (5, 1, 0), (5, 1, 1), (5, 1, 2), (5, 1, 3), (5, 1, 4), (5, 2, 2), (5, 3, 1), (5, 3, 2), (5, 3, 3), (5, 4, 2), (5, 5, 2), (6, 1, 1), (6, 1, 3), (6, 2, 2), (6, 4, 1), (6, 4, 2), (6, 4, 3), (7, 3, 2), (7, 4, 2), (7, 5, 2), (8, 3, 1), (8, 3, 3), (8, 4, 0), (8, 4, 1), (8, 4, 2), (8, 4, 3), (8, 4, 4), (8, 5, 1), (8, 5, 3), (9, 4, 1), (9, 4, 3)]",
                "degrees": "[3, 3, 3, 3, 4, 4, 4, 4, 4, 4, 4, 4, 4, 4, 4, 4, 4, 5, 5, 5, 5, 5, 5, 5, 5]",
                "direction": "(0, 0, -1)",
                "object": "CubesSet",
                "root": "(2, 4, 2)"
            }
        }
    },
    {
        "object": "FreeCubesSet",
        "replaced-by": {
            "object": "FreeCubesSet",
            "representative": {
                "object": "FixedCubesSet",
                "representative": {
                    "cubes": "[(0, 0, 1), (0, 1, 0), (0, 1, 1), (0, 1, 2), (0, 2, 1), (1, 1, 1)]",
                    "degrees": "[5]",
                    "direction": "(1, 0, 0)",
                    "object": "CubesSet",
                    "root": "(0, 1, 1)"
                }
            }
        },
        "representative": {
            "object": "FixedCubesSet",
            "representative": {
                "cubes": "[(0, 1, 4), (0, 1, 8), (0, 3, 4), (0, 3, 8), (1, 0, 4), (1, 0, 8), (1, 1, 3), (1, 1, 4), (1, 1, 5), (1, 1, 7), (1, 1, 8), (1, 1, 9), (1, 2, 4), (1, 2, 8), (1, 3, 3), (1, 3, 4), (1, 3, 5), (1, 3, 7), (1, 3, 8), (1, 3, 9), (1, 4, 4), (1, 4, 8), (2, 2, 3), (2, 2, 4), (2, 2, 5), (2, 2, 7), (2, 2, 8), (2, 2, 9), (2, 2, 12), (3, 1, 1), (3, 1, 4), (3, 1, 8), (3, 1, 12), (3, 2, 2), (3, 2, 4), (3, 2, 6), (3, 2, 8), (3, 2, 10), (3, 2, 12), (3, 2, 13), (3, 3, 1), (3, 3, 4), (3, 3, 8), (3, 3, 12), (4, 0, 1), (4, 1, 0), (4, 1, 1), (4, 1, 3), (4, 1, 5), (4, 1, 7), (4, 1, 9), (4, 1, 11), (4, 2, 1), (4, 2, 2), (4, 2, 3), (4, 2, 4), (4, 2, 5), (4, 2, 6), (4, 2, 7), (4, 2, 8), (4, 2, 9), (4, 2, 10), (4, 2, 11), (4, 2, 12), (4, 3, 0), (4, 3, 1), (4, 3, 3), (4, 3, 5), (4, 3, 7), (4, 3, 9), (4, 3, 11), (4, 4, 1), (5, 1, 1), (5, 1, 6), (5, 1, 12), (5, 2, 2), (5, 2, 4), (5, 2, 6), (5, 2, 8), (5, 2, 10), (5, 2, 12), (5, 2, 13), (5, 3, 1), (5, 3, 6), (5, 3, 12), (6, 2, 5), (6, 2, 6), (6, 2, 7), (6, 2, 12), (7, 1, 6), (7, 2, 6), (7, 3, 6), (8, 2, 5), (8, 2, 6), (8, 2, 7), (9, 0, 6), (9, 1, 5), (9, 1, 6), (9, 1, 7), (9, 2, 6), (9, 3, 5), (9, 3, 6), (9, 3, 7), (9, 4, 6), (10, 1, 6), (10, 3, 6)]",
                "degrees": "[3, 3, 3, 3, 3, 4, 4, 4, 4, 4, 4, 4, 4, 4, 4, 4, 4, 4, 4, 4, 4, 4, 4, 5, 5, 5, 5, 5, 5, 5, 5, 5, 5]",
                "direction": "(0, -1, 0)",
                "object": "CubesSet",
                "root": "(4, 2, 7)"
            }
        }
    },
    {
        "object": "FreeCubesSet",
        "replaced-by": {
            "object": "FreeCubesSet",
            "representative": {
                "object": "FixedCubesSet",
                "representative": {
                    "cubes": "[(0, 0, 1), (0, 1, 0), (0, 1, 1), (0, 1, 2), (0, 2, 1), (1, 1, 1)]",
                    "degrees": "[5]",
                    "direction": "(1, 0, 0)",
                    "object": "CubesSet",
                    "root": "(0, 1, 1)"
                }
            }
        },
        "representative": {
            "object": "FixedCubesSet",
            "representative": {
                "cubes": "[(0, 1, 4), (0, 3, 4), (1, 0, 4), (1, 1, 3), (1, 1, 4), (1, 1, 5), (1, 2, 4), (1, 3, 3), (1, 3, 4), (1, 3, 5), (1, 4, 4), (2, 2, 3), (2, 2, 4), (2, 2, 5), (2, 2, 10), (3, 1, 1), (3, 1, 4), (3, 1, 10), (3, 2, 2), (3, 2, 4), (3, 2, 6), (3, 2, 8), (3, 2, 10), (3, 2, 11), (3, 3, 1), (3, 3, 4), (3, 3, 10), (4, 0, 1), (4, 1, 0), (4, 1, 1), (4, 1, 3), (4, 1, 5), (4, 1, 7), (4, 1, 9), (4, 2, 1), (4, 2, 2), (4, 2, 3), (4, 2, 4), (4, 2, 5), (4, 2, 6), (4, 2, 7), (4, 2, 8), (4, 2, 9), (4, 2, 10), (4, 3, 0), (4, 3, 1), (4, 3, 3), (4, 3, 5), (4, 3, 7), (4, 3, 9), (4, 4, 1), (5, 1, 1), (5, 1, 6), (5, 1, 10), (5, 2, 2), (5, 2, 4), (5, 2, 6), (5, 2, 8), (5, 2, 10), (5, 2, 11), (5, 3, 1), (5, 3, 6), (5, 3, 10), (6, 2, 5), (6, 2, 6), (6, 2, 7), (6, 2, 10), (7, 0, 6), (7, 1, 5), (7, 1, 6), (7, 1, 7), (7, 2, 6), (7, 3, 5), (7, 3, 6), (7, 3, 7), (7, 4, 6), (8, 1, 6), (8, 3, 6)]",
                "degrees": "[3, 3, 3, 3, 4, 4, 4, 4, 4, 4, 4, 4, 4, 4, 4, 4, 5, 5, 5, 5, 5, 5, 5, 5]",
                "direction": "(0, -1, 0)",
                "object": "CubesSet",
                "root": "(5, 2, 6)"
            }
        }
    },
    {
        "object": "FreeCubesSet",
        "replaced-by": {
            "object": "FreeCubesSet",
            "representative": {
                "object": "FixedCubesSet",
                "representative": {
                    "cubes": "[(0, 0, 1), (0, 1, 0), (0, 1, 1), (0, 1, 2), (0, 2, 1), (1, 1, 1)]",
                    "degrees": "[5]",
                    "direction": "(1, 0, 0)",
                    "object": "CubesSet",
                    "root": "(0, 1, 1)"
                }
            }
        },
        "representative": {
            "object": "FixedCubesSet",
            "representative": {
                "cubes": "[(0, 1, 4), (0, 3, 4), (1, 0, 4), (1, 1, 3), (1, 1, 4), (1, 1, 5), (1, 2, 4), (1, 3, 3), (1, 3, 4), (1, 3, 5), (1, 4, 4), (2, 2, 3), (2, 2, 4), (2, 2, 5), (2, 2, 10), (2, 5, 7), (3, 1, 4), (3, 1, 10), (3, 2, 4), (3, 2, 6), (3, 2, 8), (3, 2, 10), (3, 2, 11), (3, 3, 4), (3, 3, 7), (3, 3, 10), (3, 5, 6), (3, 5, 7), (3, 5, 8), (3, 6, 7), (4, 1, 5), (4, 1, 7), (4, 1, 9), (4, 2, 3), (4, 2, 4), (4, 2, 5), (4, 2, 6), (4, 2, 7), (4, 2, 8), (4, 2, 9), (4, 2, 10), (4, 3, 5), (4, 3, 7), (4, 3, 9), (4, 4, 6), (4, 4, 7), (4, 4, 8), (4, 5, 7), (5, 1, 1), (5, 1, 4), (5, 1, 10), (5, 2, 2), (5, 2, 4), (5, 2, 6), (5, 2, 8), (5, 2, 10), (5, 2, 11), (5, 3, 1), (5, 3, 4), (5, 3, 7), (5, 3, 10), (5, 5, 6), (5, 5, 7), (5, 5, 8), (5, 6, 7), (6, 0, 1), (6, 1, 0), (6, 1, 1), (6, 1, 3), (6, 2, 1), (6, 2, 2), (6, 2, 3), (6, 2, 4), (6, 2, 5), (6, 2, 10), (6, 3, 0), (6, 3, 1), (6, 3, 3), (6, 4, 1), (6, 5, 7), (7, 1, 1), (7, 1, 4), (7, 2, 2), (7, 2, 4), (7, 3, 1), (7, 3, 4), (8, 2, 3), (8, 2, 4), (8, 2, 5), (9, 0, 4), (9, 1, 3), (9, 1, 4), (9, 1, 5), (9, 2, 4), (9, 3, 3), (9, 3, 4), (9, 3, 5), (9, 4, 4), (10, 1, 4), (10, 3, 4)]",
                "degrees": "[3, 3, 3, 3, 3, 4, 4, 4, 4, 4, 4, 4, 4, 4, 4, 4, 4, 4, 4, 4, 4, 5, 5, 5, 5, 5, 5, 5, 5, 5, 5]",
                "direction": "(0, -1, 0)",
                "object": "CubesSet",
                "root": "(4, 2, 5)"
            }
        }
    },
    {
        "object": "FreeCubesSet",
        "replaced-by": {
            "object": "FreeCubesSet",
            "representative": {
                "object": "FixedCubesSet",
                "representative": {
                    "cubes": "[(0, 0, 1), (0, 1, 0), (0, 1, 1), (0, 1, 2), (0, 2, 1), (1, 1, 1)]",
                    "degrees": "[5]",
                    "direction": "(0, -1, 0)",
                    "object": "CubesSet",
                    "root": "(0, 1, 1)"
                }
            }
        },
        "representative": {
            "object": "FixedCubesSet",
            "representative": {
                "cubes": "[(0, 1, 4), (0, 3, 4), (1, 0, 4), (1, 1, 3), (1, 1, 4), (1, 1, 5), (1, 2, 4), (1, 3, 3), (1, 3, 4), (1, 3, 5), (1, 4, 4), (2, 2, 3), (2, 2, 4), (2, 2, 5), (2, 2, 12), (2, 5, 9), (3, 1, 1), (3, 1, 4), (3, 1, 12), (3, 2, 2), (3, 2, 4), (3, 2, 6), (3, 2, 8), (3, 2, 10), (3, 2, 12), (3, 2, 13), (3, 3, 1), (3, 3, 4), (3, 3, 9), (3, 3, 12), (3, 5, 8), (3, 5, 9), (3, 5, 10), (3, 6, 9), (4, 0, 1), (4, 1, 0), (4, 1, 1), (4, 1, 3), (4, 1, 5), (4, 1, 7), (4, 1, 9), (4, 1, 11), (4, 2, 1), (4, 2, 2), (4, 2, 3), (4, 2, 4), (4, 2, 5), (4, 2, 6), (4, 2, 7), (4, 2, 8), (4, 2, 9), (4, 2, 10), (4, 2, 11), (4, 2, 12), (4, 3, 0), (4, 3, 1), (4, 3, 3), (4, 3, 5), (4, 3, 7), (4, 3, 9), (4, 3, 11), (4, 4, 1), (4, 4, 8), (4, 4, 9), (4, 4, 10), (4, 5, 9), (5, 1, 1), (5, 1, 6), (5, 1, 12), (5, 2, 2), (5, 2, 4), (5, 2, 6), (5, 2, 8), (5, 2, 10), (5, 2, 12), (5, 2, 13), (5, 3, 1), (5, 3, 6), (5, 3, 9), (5, 3, 12), (5, 5, 8), (5, 5, 9), (5, 5, 10), (5, 6, 9), (6, 2, 5), (6, 2, 6), (6, 2, 7), (6, 2, 12), (6, 5, 9), (7, 1, 6), (7, 2, 6), (7, 3, 6), (8, 1, 5), (8, 1, 7), (8, 2, 4), (8, 2, 5), (8, 2, 6), (8, 2, 7), (8, 2, 8), (8, 3, 5), (8, 3, 7), (9, 2, 5), (9, 2, 7)]",
                "degrees": "[3, 3, 3, 3, 3, 4, 4, 4, 4, 4, 4, 4, 4, 4, 4, 4, 4, 4, 4, 4, 4, 4, 5, 5, 5, 5, 5, 5, 5, 5, 5, 5]",
                "direction": "(0, 1, 0)",
                "object": "CubesSet",
                "root": "(4, 2, 7)"
            }
        }
    },
    {
        "object": "FreeCubesSet",
        "replaced-by": {
            "object": "FreeCubesSet",
            "representative": {
                "object": "FixedCubesSet",
                "representative": {
                    "cubes": "[(0, 0, 1), (0, 1, 0), (0, 1, 1), (0, 1, 2), (0, 2, 1), (1, 1, 1)]",
                    "degrees": "[5]",
                    "direction": "(0, -1, 0)",
                    "object": "CubesSet",
                    "root": "(0, 1, 1)"
                }
            }
        },
        "representative": {
            "object": "FixedCubesSet",
            "representative": {
                "cubes": "[(0, 1, 3), (0, 1, 5), (0, 2, 4), (0, 4, 4), (0, 6, 4), (0, 7, 3), (0, 7, 5), (1, 0, 3), (1, 0, 5), (1, 1, 2), (1, 1, 3), (1, 1, 4), (1, 1, 5), (1, 1, 6), (1, 2, 4), (1, 3, 3), (1, 3, 4), (1, 3, 5), (1, 4, 4), (1, 5, 3), (1, 5, 4), (1, 5, 5), (1, 6, 4), (1, 7, 2), (1, 7, 3), (1, 7, 4), (1, 7, 5), (1, 7, 6), (1, 8, 3), (1, 8, 5), (2, 1, 3), (2, 1, 5), (2, 2, 4), (2, 4, 3), (2, 4, 4), (2, 4, 5), (2, 4, 8), (2, 6, 4), (2, 7, 3), (2, 7, 5), (3, 3, 4), (3, 3, 8), (3, 4, 4), (3, 4, 6), (3, 4, 8), (3, 4, 9), (3, 5, 4), (3, 5, 8), (4, 3, 5), (4, 3, 7), (4, 4, 3), (4, 4, 4), (4, 4, 5), (4, 4, 6), (4, 4, 7), (4, 4, 8), (4, 5, 5), (4, 5, 7), (5, 3, 1), (5, 3, 4), (5, 3, 8), (5, 4, 2), (5, 4, 4), (5, 4, 6), (5, 4, 8), (5, 4, 9), (5, 5, 1), (5, 5, 4), (5, 5, 8), (6, 2, 1), (6, 3, 0), (6, 3, 1), (6, 3, 3), (6, 4, 1), (6, 4, 2), (6, 4, 3), (6, 4, 4), (6, 4, 5), (6, 4, 8), (6, 5, 0), (6, 5, 1), (6, 5, 3), (6, 6, 1), (7, 3, 1), (7, 3, 4), (7, 4, 2), (7, 4, 4), (7, 5, 1), (7, 5, 4), (8, 4, 3), (8, 4, 4), (8, 4, 5), (9, 2, 4), (9, 3, 3), (9, 3, 4), (9, 3, 5), (9, 4, 4), (9, 5, 3), (9, 5, 4), (9, 5, 5), (9, 6, 4), (10, 3, 4), (10, 5, 4)]",
                "degrees": "[3, 3, 3, 3, 3, 4, 4, 4, 4, 4, 4, 4, 4, 4, 4, 4, 4, 4, 4, 4, 4, 4, 5, 5, 5, 5, 5, 5, 5, 5, 5, 5]",
                "direction": "(0, -1, 0)",
                "object": "CubesSet",
                "root": "(3, 4, 4)"
            }
        }
    },
    {
        "object": "FreeCubesSet",
        "replaced-by": {
            "object": "FreeCubesSet",
            "representative": {
                "object": "FixedCubesSet",
                "representative": {
                    "cubes": "[(0, 0, 1), (0, 1, 0), (0, 1, 1), (0, 1, 2), (0, 2, 1), (1, 1, 1)]",
                    "degrees": "[5]",
                    "direction": "(1, 0, 0)",
                    "object": "CubesSet",
                    "root": "(0, 1, 1)"
                }
            }
        },
        "representative": {
            "object": "FixedCubesSet",
            "representative": {
                "cubes": "[(0, 1, 4), (0, 3, 4), (1, 0, 4), (1, 1, 3), (1, 1, 4), (1, 1, 5), (1, 2, 4), (1, 3, 3), (1, 3, 4), (1, 3, 5), (1, 4, 4), (2, 2, 3), (2, 2, 4), (2, 2, 5), (3, 1, 1), (3, 1, 4), (3, 1, 9), (3, 2, 2), (3, 2, 4), (3, 2, 6), (3, 2, 8), (3, 3, 1), (3, 3, 4), (3, 3, 9), (4, 0, 1), (4, 0, 9), (4, 1, 0), (4, 1, 1), (4, 1, 3), (4, 1, 5), (4, 1, 7), (4, 1, 9), (4, 1, 10), (4, 2, 1), (4, 2, 2), (4, 2, 3), (4, 2, 4), (4, 2, 5), (4, 2, 6), (4, 2, 7), (4, 2, 8), (4, 2, 9), (4, 3, 0), (4, 3, 1), (4, 3, 3), (4, 3, 5), (4, 3, 7), (4, 3, 9), (4, 3, 10), (4, 4, 1), (4, 4, 9), (5, 1, 1), (5, 1, 6), (5, 1, 9), (5, 2, 2), (5, 2, 4), (5, 2, 6), (5, 2, 8), (5, 3, 1), (5, 3, 6), (5, 3, 9), (6, 2, 5), (6, 2, 6), (6, 2, 7), (7, 1, 6), (7, 2, 6), (7, 3, 6), (8, 2, 5), (8, 2, 6), (8, 2, 7), (9, 0, 6), (9, 1, 5), (9, 1, 6), (9, 1, 7), (9, 2, 6), (9, 3, 5), (9, 3, 6), (9, 3, 7), (9, 4, 6), (10, 1, 6), (10, 3, 6)]",
                "degrees": "[3, 3, 3, 3, 4, 4, 4, 4, 4, 4, 4, 4, 4, 4, 4, 4, 4, 5, 5, 5, 5, 5, 5, 5, 5]",
                "direction": "(0, -1, 0)",
                "object": "CubesSet",
                "root": "(5, 2, 6)"
            }
        }
    },
    {
        "object": "FreeCubesSet",
        "replaced-by": {
            "object": "FreeCubesSet",
            "representative": {
                "object": "FixedCubesSet",
                "representative": {
                    "cubes": "[(0, 0, 1), (0, 1, 0), (0, 1, 1), (0, 1, 2), (0, 2, 1), (1, 1, 1)]",
                    "degrees": "[5]",
                    "direction": "(1, 0, 0)",
                    "object": "CubesSet",
                    "root": "(0, 1, 1)"
                }
            }
        },
        "representative": {
            "object": "FixedCubesSet",
            "representative": {
                "cubes": "[(0, 1, 4), (0, 3, 4), (1, 0, 4), (1, 1, 3), (1, 1, 4), (1, 1, 5), (1, 2, 4), (1, 3, 3), (1, 3, 4), (1, 3, 5), (1, 4, 4), (2, 2, 3), (2, 2, 4), (2, 2, 5), (3, 1, 1), (3, 1, 4), (3, 1, 9), (3, 2, 2), (3, 2, 4), (3, 2, 6), (3, 2, 8), (3, 3, 1), (3, 3, 4), (3, 3, 9), (4, 0, 1), (4, 0, 9), (4, 1, 0), (4, 1, 1), (4, 1, 3), (4, 1, 5), (4, 1, 7), (4, 1, 9), (4, 1, 10), (4, 2, 1), (4, 2, 2), (4, 2, 3), (4, 2, 4), (4, 2, 5), (4, 2, 6), (4, 2, 7), (4, 2, 8), (4, 2, 9), (4, 3, 0), (4, 3, 1), (4, 3, 3), (4, 3, 5), (4, 3, 7), (4, 3, 9), (4, 3, 10), (4, 4, 1), (4, 4, 9), (5, 1, 1), (5, 1, 6), (5, 1, 9), (5, 2, 2), (5, 2, 4), (5, 2, 6), (5, 2, 8), (5, 3, 1), (5, 3, 6), (5, 3, 9), (6, 2, 5), (6, 2, 6), (6, 2, 7), (7, 0, 6), (7, 1, 5), (7, 1, 6), (7, 1, 7), (7, 2, 6), (7, 3, 5), (7, 3, 6), (7, 3, 7), (7, 4, 6), (8, 1, 6), (8, 3, 6)]",
                "degrees": "[3, 3, 3, 3, 4, 4, 4, 4, 4, 4, 4, 4, 4, 4, 4, 5, 5, 5, 5, 5, 5, 5, 5]",
                "direction": "(0, -1, 0)",
                "object": "CubesSet",
                "root": "(3, 2, 4)"
            }
        }
    },
    {
        "object": "FreeCubesSet",
        "replaced-by": {
            "object": "FreeCubesSet",
            "representative": {
                "object": "FixedCubesSet",
                "representative": {
                    "cubes": "[(0, 0, 1), (0, 1, 0), (0, 1, 1), (0, 1, 2), (0, 2, 1), (1, 1, 1)]",
                    "degrees": "[5]",
                    "direction": "(1, 0, 0)",
                    "object": "CubesSet",
                    "root": "(0, 1, 1)"
                }
            }
        },
        "representative": {
            "object": "FixedCubesSet",
            "representative": {
                "cubes": "[(0, 1, 4), (0, 3, 4), (1, 0, 4), (1, 1, 3), (1, 1, 4), (1, 1, 5), (1, 2, 4), (1, 3, 3), (1, 3, 4), (1, 3, 5), (1, 4, 4), (2, 2, 3), (2, 2, 4), (2, 2, 5), (2, 2, 10), (2, 5, 7), (3, 1, 4), (3, 1, 10), (3, 2, 4), (3, 2, 6), (3, 2, 8), (3, 2, 10), (3, 2, 11), (3, 3, 4), (3, 3, 7), (3, 3, 10), (3, 5, 6), (3, 5, 7), (3, 5, 8), (3, 6, 7), (4, 1, 5), (4, 1, 7), (4, 1, 9), (4, 2, 3), (4, 2, 4), (4, 2, 5), (4, 2, 6), (4, 2, 7), (4, 2, 8), (4, 2, 9), (4, 2, 10), (4, 3, 5), (4, 3, 7), (4, 3, 9), (4, 4, 6), (4, 4, 7), (4, 4, 8), (4, 5, 7), (5, 1, 1), (5, 1, 4), (5, 1, 10), (5, 2, 2), (5, 2, 4), (5, 2, 6), (5, 2, 8), (5, 2, 10), (5, 2, 11), (5, 3, 1), (5, 3, 4), (5, 3, 7), (5, 3, 10), (5, 5, 6), (5, 5, 7), (5, 5, 8), (5, 6, 7), (6, 0, 1), (6, 1, 0), (6, 1, 1), (6, 1, 3), (6, 2, 1), (6, 2, 2), (6, 2, 3), (6, 2, 4), (6, 2, 5), (6, 2, 10), (6, 3, 0), (6, 3, 1), (6, 3, 3), (6, 4, 1), (6, 5, 7), (7, 1, 1), (7, 1, 4), (7, 2, 2), (7, 2, 4), (7, 3, 1), (7, 3, 4), (8, 2, 3), (8, 2, 4), (8, 2, 5), (9, 0, 4), (9, 1, 3), (9, 1, 4), (9, 1, 5), (9, 2, 4), (9, 3, 3), (9, 3, 4), (9, 3, 5), (9, 4, 4), (10, 1, 4), (10, 3, 4)]",
                "degrees": "[3, 3, 3, 3, 3, 4, 4, 4, 4, 4, 4, 4, 4, 4, 4, 4, 4, 4, 4, 4, 4, 5, 5, 5, 5, 5, 5, 5, 5, 5, 5]",
                "direction": "(0, 1, 0)",
                "object": "CubesSet",
                "root": "(4, 2, 5)"
            }
        }
    },
    {
        "object": "FreeCubesSet",
        "replaced-by": {
            "object": "FreeCubesSet",
            "representative": {
                "object": "FixedCubesSet",
                "representative": {
                    "cubes": "[(0, 0, 1), (0, 1, 0), (0, 1, 1), (0, 1, 2), (0, 2, 1), (1, 1, 1)]",
                    "degrees": "[5]",
                    "direction": "(1, 0, 0)",
                    "object": "CubesSet",
                    "root": "(0, 1, 1)"
                }
            }
        },
        "representative": {
            "object": "FixedCubesSet",
            "representative": {
                "cubes": "[(0, 1, 4), (0, 3, 4), (1, 0, 4), (1, 1, 3), (1, 1, 4), (1, 1, 5), (1, 2, 4), (1, 3, 3), (1, 3, 4), (1, 3, 5), (1, 4, 4), (2, 2, 3), (2, 2, 4), (2, 2, 5), (2, 2, 8), (3, 1, 4), (3, 1, 8), (3, 2, 4), (3, 2, 6), (3, 2, 8), (3, 2, 9), (3, 3, 4), (3, 3, 8), (4, 1, 5), (4, 1, 7), (4, 2, 3), (4, 2, 4), (4, 2, 5), (4, 2, 6), (4, 2, 7), (4, 2, 8), (4, 3, 5), (4, 3, 7), (5, 1, 1), (5, 1, 4), (5, 1, 8), (5, 2, 2), (5, 2, 4), (5, 2, 6), (5, 2, 8), (5, 2, 9), (5, 3, 1), (5, 3, 4), (5, 3, 8), (6, 0, 1), (6, 1, 0), (6, 1, 1), (6, 1, 3), (6, 2, 1), (6, 2, 2), (6, 2, 3), (6, 2, 4), (6, 2, 5), (6, 2, 8), (6, 3, 0), (6, 3, 1), (6, 3, 3), (6, 4, 1), (7, 1, 1), (7, 1, 4), (7, 2, 2), (7, 2, 4), (7, 3, 1), (7, 3, 4), (8, 2, 3), (8, 2, 4), (8, 2, 5), (9, 0, 4), (9, 1, 3), (9, 1, 4), (9, 1, 5), (9, 2, 4), (9, 3, 3), (9, 3, 4), (9, 3, 5), (9, 4, 4), (10, 1, 4), (10, 3, 4)]",
                "degrees": "[3, 3, 3, 3, 4, 4, 4, 4, 4, 4, 4, 4, 4, 4, 4, 4, 5, 5, 5, 5, 5, 5, 5, 5]",
                "direction": "(0, -1, 0)",
                "object": "CubesSet",
                "root": "(4, 2, 5)"
            }
        }
    },
    {
        "object": "FreeCubesSet",
        "replaced-by": {
            "object": "FreeCubesSet",
            "representative": {
                "object": "FixedCubesSet",
                "representative": {
                    "cubes": "[(0, 0, 1), (0, 1, 0), (0, 1, 1), (0, 1, 2), (0, 2, 1), (1, 1, 1)]",
                    "degrees": "[5]",
                    "direction": "(1, 0, 0)",
                    "object": "CubesSet",
                    "root": "(0, 1, 1)"
                }
            }
        },
        "representative": {
            "object": "FixedCubesSet",
            "representative": {
                "cubes": "[(0, 1, 4), (0, 3, 4), (1, 0, 4), (1, 1, 3), (1, 1, 4), (1, 1, 5), (1, 2, 4), (1, 3, 3), (1, 3, 4), (1, 3, 5), (1, 4, 4), (2, 2, 3), (2, 2, 4), (2, 2, 5), (3, 1, 1), (3, 1, 4), (3, 1, 11), (3, 2, 2), (3, 2, 4), (3, 2, 6), (3, 2, 8), (3, 2, 10), (3, 3, 1), (3, 3, 4), (3, 3, 11), (4, 0, 1), (4, 0, 11), (4, 1, 0), (4, 1, 1), (4, 1, 3), (4, 1, 5), (4, 1, 7), (4, 1, 9), (4, 1, 11), (4, 1, 12), (4, 2, 1), (4, 2, 2), (4, 2, 3), (4, 2, 4), (4, 2, 5), (4, 2, 6), (4, 2, 7), (4, 2, 8), (4, 2, 9), (4, 2, 10), (4, 2, 11), (4, 3, 0), (4, 3, 1), (4, 3, 3), (4, 3, 5), (4, 3, 7), (4, 3, 9), (4, 3, 11), (4, 3, 12), (4, 4, 1), (4, 4, 11), (5, 1, 1), (5, 1, 6), (5, 1, 11), (5, 2, 2), (5, 2, 4), (5, 2, 6), (5, 2, 8), (5, 2, 10), (5, 3, 1), (5, 3, 6), (5, 3, 11), (6, 2, 5), (6, 2, 6), (6, 2, 7), (7, 0, 6), (7, 1, 5), (7, 1, 6), (7, 1, 7), (7, 2, 6), (7, 3, 5), (7, 3, 6), (7, 3, 7), (7, 4, 6), (8, 1, 6), (8, 3, 6)]",
                "degrees": "[3, 3, 3, 3, 4, 4, 4, 4, 4, 4, 4, 4, 4, 4, 4, 4, 4, 5, 5, 5, 5, 5, 5, 5, 5]",
                "direction": "(0, -1, 0)",
                "object": "CubesSet",
                "root": "(5, 2, 6)"
            }
        }
    },
    {
        "object": "FreeCubesSet",
        "replaced-by": {
            "object": "FreeCubesSet",
            "representative": {
                "object": "FixedCubesSet",
                "representative": {
                    "cubes": "[(0, 0, 1), (0, 1, 0), (0, 1, 1), (0, 1, 2), (0, 2, 1), (1, 1, 1)]",
                    "degrees": "[5]",
                    "direction": "(1, 0, 0)",
                    "object": "CubesSet",
                    "root": "(0, 1, 1)"
                }
            }
        },
        "representative": {
            "object": "FixedCubesSet",
            "representative": {
                "cubes": "[(0, 1, 2), (0, 3, 2), (1, 0, 2), (1, 1, 1), (1, 1, 2), (1, 1, 3), (1, 2, 2), (1, 3, 1), (1, 3, 2), (1, 3, 3), (1, 4, 2), (2, 2, 1), (2, 2, 2), (2, 2, 3), (3, 1, 2), (3, 1, 5), (3, 2, 2), (3, 2, 4), (3, 3, 2), (3, 3, 5), (4, 0, 5), (4, 1, 3), (4, 1, 5), (4, 1, 6), (4, 2, 1), (4, 2, 2), (4, 2, 3), (4, 2, 4), (4, 2, 5), (4, 3, 3), (4, 3, 5), (4, 3, 6), (4, 4, 5), (5, 1, 2), (5, 1, 5), (5, 2, 2), (5, 2, 4), (5, 3, 2), (5, 3, 5), (6, 1, 1), (6, 2, 0), (6, 2, 1), (6, 2, 2), (6, 2, 3), (6, 3, 1), (7, 1, 2), (7, 2, 2), (7, 3, 2), (8, 2, 1), (8, 2, 2), (8, 2, 3), (9, 0, 2), (9, 1, 1), (9, 1, 2), (9, 1, 3), (9, 2, 2), (9, 3, 1), (9, 3, 2), (9, 3, 3), (9, 4, 2), (10, 1, 2), (10, 3, 2)]",
                "degrees": "[3, 3, 3, 4, 4, 4, 4, 4, 4, 4, 4, 4, 4, 5, 5, 5, 5, 5, 5]",
                "direction": "(0, -1, 0)",
                "object": "CubesSet",
                "root": "(6, 2, 1)"
            }
        }
    },
    {
        "object": "FreeCubesSet",
        "replaced-by": {
            "object": "FreeCubesSet",
            "representative": {
                "object": "FixedCubesSet",
                "representative": {
                    "cubes": "[(0, 0, 1), (0, 1, 0), (0, 1, 1), (0, 1, 2), (0, 2, 1), (1, 1, 1)]",
                    "degrees": "[5]",
                    "direction": "(1, 0, 0)",
                    "object": "CubesSet",
                    "root": "(0, 1, 1)"
                }
            }
        },
        "representative": {
            "object": "FixedCubesSet",
            "representative": {
                "cubes": "[(0, 1, 4), (0, 1, 8), (0, 3, 4), (0, 3, 8), (1, 0, 4), (1, 0, 8), (1, 1, 3), (1, 1, 4), (1, 1, 5), (1, 1, 7), (1, 1, 8), (1, 1, 9), (1, 2, 4), (1, 2, 8), (1, 3, 3), (1, 3, 4), (1, 3, 5), (1, 3, 7), (1, 3, 8), (1, 3, 9), (1, 4, 4), (1, 4, 8), (2, 2, 3), (2, 2, 4), (2, 2, 5), (2, 2, 7), (2, 2, 8), (2, 2, 9), (3, 1, 1), (3, 1, 4), (3, 1, 8), (3, 1, 11), (3, 2, 2), (3, 2, 4), (3, 2, 6), (3, 2, 8), (3, 2, 10), (3, 3, 1), (3, 3, 4), (3, 3, 8), (3, 3, 11), (4, 0, 1), (4, 0, 11), (4, 1, 0), (4, 1, 1), (4, 1, 3), (4, 1, 5), (4, 1, 7), (4, 1, 9), (4, 1, 11), (4, 1, 12), (4, 2, 1), (4, 2, 2), (4, 2, 3), (4, 2, 4), (4, 2, 5), (4, 2, 6), (4, 2, 7), (4, 2, 8), (4, 2, 9), (4, 2, 10), (4, 2, 11), (4, 3, 0), (4, 3, 1), (4, 3, 3), (4, 3, 5), (4, 3, 7), (4, 3, 9), (4, 3, 11), (4, 3, 12), (4, 4, 1), (4, 4, 11), (5, 1, 1), (5, 1, 6), (5, 1, 11), (5, 2, 2), (5, 2, 4), (5, 2, 6), (5, 2, 8), (5, 2, 10), (5, 3, 1), (5, 3, 6), (5, 3, 11), (6, 2, 5), (6, 2, 6), (6, 2, 7), (7, 1, 6), (7, 2, 6), (7, 3, 6), (8, 1, 5), (8, 1, 7), (8, 2, 4), (8, 2, 5), (8, 2, 6), (8, 2, 7), (8, 2, 8), (8, 3, 5), (8, 3, 7), (9, 2, 5), (9, 2, 7)]",
                "degrees": "[3, 3, 3, 3, 3, 4, 4, 4, 4, 4, 4, 4, 4, 4, 4, 4, 4, 4, 4, 4, 4, 5, 5, 5, 5, 5, 5, 5, 5, 5, 5]",
                "direction": "(0, -1, 0)",
                "object": "CubesSet",
                "root": "(4, 2, 5)"
            }
        }
    },
    {
        "object": "FreeCubesSet",
        "replaced-by": {
            "object": "FreeCubesSet",
            "representative": {
                "object": "FixedCubesSet",
                "representative": {
                    "cubes": "[(0, 0, 1), (0, 1, 0), (0, 1, 1), (0, 1, 2), (0, 2, 1), (1, 1, 1)]",
                    "degrees": "[5]",
                    "direction": "(1, 0, 0)",
                    "object": "CubesSet",
                    "root": "(0, 1, 1)"
                }
            }
        },
        "representative": {
            "object": "FixedCubesSet",
            "representative": {
                "cubes": "[(0, 1, 4), (0, 1, 8), (0, 3, 4), (0, 3, 8), (1, 0, 4), (1, 0, 8), (1, 1, 3), (1, 1, 4), (1, 1, 5), (1, 1, 7), (1, 1, 8), (1, 1, 9), (1, 2, 4), (1, 2, 8), (1, 3, 3), (1, 3, 4), (1, 3, 5), (1, 3, 7), (1, 3, 8), (1, 3, 9), (1, 4, 4), (1, 4, 8), (2, 2, 3), (2, 2, 4), (2, 2, 5), (2, 2, 7), (2, 2, 8), (2, 2, 9), (3, 1, 1), (3, 1, 4), (3, 1, 8), (3, 1, 11), (3, 2, 2), (3, 2, 4), (3, 2, 6), (3, 2, 8), (3, 2, 10), (3, 3, 1), (3, 3, 4), (3, 3, 8), (3, 3, 11), (4, 0, 1), (4, 0, 11), (4, 1, 0), (4, 1, 1), (4, 1, 3), (4, 1, 5), (4, 1, 7), (4, 1, 9), (4, 1, 11), (4, 1, 12), (4, 2, 1), (4, 2, 2), (4, 2, 3), (4, 2, 4), (4, 2, 5), (4, 2, 6), (4, 2, 7), (4, 2, 8), (4, 2, 9), (4, 2, 10), (4, 2, 11), (4, 3, 0), (4, 3, 1), (4, 3, 3), (4, 3, 5), (4, 3, 7), (4, 3, 9), (4, 3, 11), (4, 3, 12), (4, 4, 1), (4, 4, 11), (5, 1, 1), (5, 1, 6), (5, 1, 11), (5, 2, 2), (5, 2, 4), (5, 2, 6), (5, 2, 8), (5, 2, 10), (5, 3, 1), (5, 3, 6), (5, 3, 11), (6, 2, 5), (6, 2, 6), (6, 2, 7), (7, 1, 6), (7, 2, 6), (7, 3, 6), (8, 2, 5), (8, 2, 6), (8, 2, 7), (9, 0, 6), (9, 1, 5), (9, 1, 6), (9, 1, 7), (9, 2, 6), (9, 3, 5), (9, 3, 6), (9, 3, 7), (9, 4, 6), (10, 1, 6), (10, 3, 6)]",
                "degrees": "[3, 3, 3, 3, 3, 4, 4, 4, 4, 4, 4, 4, 4, 4, 4, 4, 4, 4, 4, 4, 4, 4, 5, 5, 5, 5, 5, 5, 5, 5, 5, 5]",
                "direction": "(0, -1, 0)",
                "object": "CubesSet",
                "root": "(4, 2, 5)"
            }
        }
    },
    {
        "object": "FreeCubesSet",
        "replaced-by": {
            "object": "FreeCubesSet",
            "representative": {
                "object": "FixedCubesSet",
                "representative": {
                    "cubes": "[(0, 0, 1), (0, 1, 0), (0, 1, 1), (0, 1, 2), (0, 2, 1), (1, 1, 1)]",
                    "degrees": "[5]",
                    "direction": "(1, 0, 0)",
                    "object": "CubesSet",
                    "root": "(0, 1, 1)"
                }
            }
        },
        "representative": {
            "object": "FixedCubesSet",
            "representative": {
                "cubes": "[(0, 1, 4), (0, 1, 8), (0, 3, 4), (0, 3, 8), (1, 0, 4), (1, 0, 8), (1, 1, 3), (1, 1, 4), (1, 1, 5), (1, 1, 7), (1, 1, 8), (1, 1, 9), (1, 2, 4), (1, 2, 8), (1, 3, 3), (1, 3, 4), (1, 3, 5), (1, 3, 7), (1, 3, 8), (1, 3, 9), (1, 4, 4), (1, 4, 8), (2, 2, 3), (2, 2, 4), (2, 2, 5), (2, 2, 7), (2, 2, 8), (2, 2, 9), (3, 1, 1), (3, 1, 4), (3, 1, 8), (3, 1, 13), (3, 2, 2), (3, 2, 4), (3, 2, 6), (3, 2, 8), (3, 2, 10), (3, 2, 12), (3, 3, 1), (3, 3, 4), (3, 3, 8), (3, 3, 13), (4, 0, 1), (4, 0, 13), (4, 1, 0), (4, 1, 1), (4, 1, 3), (4, 1, 5), (4, 1, 7), (4, 1, 9), (4, 1, 11), (4, 1, 13), (4, 1, 14), (4, 2, 1), (4, 2, 2), (4, 2, 3), (4, 2, 4), (4, 2, 5), (4, 2, 6), (4, 2, 7), (4, 2, 8), (4, 2, 9), (4, 2, 10), (4, 2, 11), (4, 2, 12), (4, 2, 13), (4, 3, 0), (4, 3, 1), (4, 3, 3), (4, 3, 5), (4, 3, 7), (4, 3, 9), (4, 3, 11), (4, 3, 13), (4, 3, 14), (4, 4, 1), (4, 4, 13), (5, 1, 1), (5, 1, 6), (5, 1, 10), (5, 1, 13), (5, 2, 2), (5, 2, 4), (5, 2, 6), (5, 2, 8), (5, 2, 10), (5, 2, 12), (5, 3, 1), (5, 3, 6), (5, 3, 10), (5, 3, 13), (6, 2, 5), (6, 2, 6), (6, 2, 7), (6, 2, 9), (6, 2, 10), (6, 2, 11), (7, 0, 10), (7, 1, 6), (7, 1, 9), (7, 1, 10), (7, 1, 11), (7, 2, 6), (7, 2, 10), (7, 3, 6), (7, 3, 9), (7, 3, 10), (7, 3, 11), (7, 4, 10), (8, 1, 5), (8, 1, 7), (8, 1, 10), (8, 2, 4), (8, 2, 5), (8, 2, 6), (8, 2, 7), (8, 2, 8), (8, 3, 5), (8, 3, 7), (8, 3, 10), (9, 2, 5), (9, 2, 7)]",
                "degrees": "[3, 3, 3, 3, 3, 3, 4, 4, 4, 4, 4, 4, 4, 4, 4, 4, 4, 4, 4, 4, 4, 4, 4, 4, 4, 4, 5, 5, 5, 5, 5, 5, 5, 5, 5, 5, 5, 5]",
                "direction": "(0, -1, 0)",
                "object": "CubesSet",
                "root": "(4, 2, 7)"
            }
        }
    }
]